,prop_amplified
A'Donte Washington,0.0
Aaron Alexis,0.002150537634408602
Aaron Bailey,0.0014204545454545455
Aaron Ballard,0.0
Aaron Brandon,0.0
Aaron Campbell,0.005587949465500486
Aaron Dorsey,0.0
Aaron Dumas,0.0
Aaron Fleming,0.0
Aaron Hudson,0.0
Aaron Hunter,0.0009273570324574962
Aaron Jacobs,0.0
Aaron McDaniels,0.0
Aaron Michael,0.0020891364902506965
Aaron Smith,0.013440860215053764
Abadi Gebregziber,0.0
Abdelle Ange,0.0
Abdirahman Salad,0.01079913606911447
Abdoubacar Halidou,0.0
Abdoulaye Thiam,0.0
Abdul Artan,0.007402837754472548
Abdul Kamal,0.000731528895391368
Abraham Dawson,0.0
Abram Bynum,0.0
Acrifa Soman,0.0
Adaisha Miller,0.0
Adam Harvell,0.0
Adam Madison,0.0
Adam Trammell,0.004158004158004158
Adil Jouamai,0.0
Adolph Grimes,0.00022177866489243733
Adolphus Pinkney,0.0
Adrian Barnes,0.0
Adrian Hardeman,0.0
Adrian Herron,0.0
Adrian Medearis,0.0027472527472527475
Adrian Pressley,0.0
Adrian Roberts,0.0
Adrian Williams,0.000777302759424796
Adrien Campbell,0.0
Adriene Ludd,0.0
Ahaviel Whitfield,0.0
Ahmaud Arbery,0.41002277904328016
Ahmed Guled,0.0
Ahmede Bradley,0.0
Aigon Wallace,0.0
Aikee Holloman,0.0
Aiyana Jones,0.04040907957096533
Ajani Mitchell,0.0
Akai Gurley,0.042796610169491524
Akbar Eaddy,0.0
Akeem Cayo,0.0
Akiel Denkins,0.003695881731784583
Akinlabi Minter,0.0
Akinyia Gray,0.0
Al Pickett,0.0
Alan Blueford,0.004562043795620438
Albert Bonam,0.0
Albert Davis,0.0004932182490752158
Albert Denton,0.0
Albert Dorsey,0.0
Albert Hughes,0.010460251046025104
Albert Lane,0.0
Albert Morton,0.0
Albert Payton,0.0
Albert Pernell,0.0
Alberta Brooks,0.0
Alberto Pagan,0.0
Alden Anderson,0.0
Alejandro Salazar,0.0
Alesia Thomas,0.004048582995951417
Alex Johnson,0.0
Alexander Bonds,0.0014265335235378032
Alexander Marion,0.0
Alexander Wilson,0.00033875338753387534
Alexandre Nicolas,0.0
Alexia Christian,0.0031832651205093224
Alexio Allen,0.0
Alexis Berro,0.0
Alfontish Cockerham,0.0
Alfran Gant,0.0
Alfred Dobson,0.0
Alfred Ferrell,0.0
Alfred Moton,0.0
Alfred Olango,0.0023767082590612004
Alfred Toe,0.0
Algenone Williams,0.0
Ali Yahia,0.0
Aljarreau Cross,0.0
Allan Farris,0.0
Allan Feliz,0.0
Allen Baker,0.0009560229445506692
Allen Bryant,0.0
Allen Desdunes,0.0
Allen Haggins,0.0
Allen Harvey,0.0
Allen Hunter,0.0
Allen Nelson,0.0
Allen Travers,0.0
Allon Jones,0.0
Alnur Edwards,0.0
Alonzo Ashley,0.0005586592178770949
Alonzo Heyward,0.0
Alonzo O'Kelley,0.0
Alonzo Smith,0.0009930486593843098
Aloysius Keaton,0.0
Alphonse Perkins,0.0
Alphonso Carter,0.0
Alraheim Tolbert,0.0
Altariq Hutchinson,0.0
Alteria Woods,0.0
Alton Davis,0.0
Alton Reaves,0.0
Alton Sterling,0.1522354272778721
Alton Witchard,0.0
Alva Braziel,0.0028360748723766306
Alvern Walker,0.0
Alvin Baum,0.0
Alvin Cole,0.02391304347826087
Alvin Nash,0.0
Alvin Tate,0.0
Amadou Diallo,0.036593479707252165
Amanda Anderson,0.0
Amanuel Dagebo,0.0
Amar McLean,0.0
Amari Malone,0.0032
Ameen Davis,0.0
Amir Johnson,0.0
Amjustine Hunter,0.0
Amos Smith,0.00033467202141900936
Ananias Shaw,0.0
Andrae Lambert,0.0
Andrais Smith,0.0
Andre Everett,0.00023792529145848205
Andre Gladen,0.002347417840375587
Andre Green,0.004289799809342231
Andre Hill,0.10294117647058823
Andre Horton,0.0
Andre Jones,0.00030175015087507544
Andre Klinghammer,0.0
Andre Lee,0.0
Andre Milton,0.0
Andre Murphy,0.0
Andre Payne,0.0
Andre Rippy,0.0
Andre Sterling,0.0
Andre Williams,0.004253308128544423
Andrew Brown,0.0
Andrew Depeiza,0.0
Andrew Ellerbe,0.0
Andrew Hogan,0.0
Andrew Kearse,0.0061770761839396015
Andrew Smyrna,0.0
Andrew Teague,0.0
Andrew Thomas,0.023859649122807018
Andrew Williams,0.0048802129547471165
Anesson Joseph,0.0
Angel Decarlo,0.0
Angela Randolph,0.0
Angelique Styles,0.0
Angelo Brown,0.0
Angelo Clark,0.0
Angelo Crooms,0.005714285714285714
Angelo Perry,0.0004828585224529213
Angelo West,0.0008956560680698612
Anna Brown,0.0022753128555176336
Anthoni Readus,0.0
Anthonie Smith,0.0
Anthony Anderson,0.059365079365079364
Anthony Ashford,0.0
Anthony Bartley,0.0
Anthony Bess,0.0
Anthony Blackmon,0.0
Anthony Bland,0.00034376074252320387
Anthony Bowers,0.0
Anthony Briggs,0.0
Anthony Calloway,0.0004046944556859571
Anthony Caruthers,0.0
Anthony Chambers,0.00030721966205837174
Anthony Childs,0.0012165450121654502
Anthony Clark-Reed,0.0
Anthony Clemons,0.0
Anthony Donelson,0.0
Anthony Eddington,0.0
Anthony Ford,0.0
Anthony Gilmore,0.0
Anthony Gomez,0.00045871559633027525
Anthony Green,0.0009505703422053232
Anthony Hammond,0.000326797385620915
Anthony Harris,0.020854021847070508
Anthony Hill,0.019102621057307864
Anthony Hutchinson,0.0
Anthony Jones,0.009210526315789473
Anthony King,0.003720238095238095
Anthony Kyser,0.0
Anthony Lawson,0.0003204101249599487
Anthony Levy,0.0
Anthony Louis,0.0
Anthony McClain,0.04905660377358491
Anthony McKinney,0.0004878048780487805
Anthony Meeks,0.0
Anthony Meely,0.0
Anthony Rawls,0.0
Anthony Robinson,0.04015151515151515
Anthony Smith,0.018680677174547577
Anthony Stoakley,0.0
Anthony Taylor,0.03002309468822171
Anthony Temple,0.0
Anthony Thompson,0.0
Anthony Trice,0.0018365472910927456
Anthony Walker,0.011583011583011582
Anthony Ware,0.002349624060150376
Anthony Weber,0.004208754208754209
Anthony Whit,0.0
Anthony White,0.008347245409015025
Anthony Williams,0.01343408900083963
Anthony Wilson,0.0
Antoine Hunter,0.0
Antoine Tobias,0.0
Anton Barrett,0.0
Anton Black,0.007253886010362694
Anton Butler,0.0
Antonio Andrew,0.0
Antonio Clements,0.0
Antonio Cooks,0.0
Antonio Garcia,0.007879656160458453
Antonio Hogans,0.0
Antonio Johnson,0.0014695077149155032
Antonio Kendrick,0.0
Antonio Levison,0.0
Antonio Martin,0.010313708637730984
Antonio Mestas,0.0
Antonio Nash,0.0
Antonio Nichols,0.0
Antonio Richardson,0.0
Antonio Tyler,0.0
Antonio Williams,0.0034129692832764505
Antoquan Watson,0.0
Antroine Scott,0.0
Antron Pearson,0.0
Antwain White,0.0
Antwane Burrise,0.0
Antwon Johnson,0.0
Antwon Rose,0.07122507122507123
Antwon Springer,0.0
Antwun Shumpert,0.0
Aquantis Griffin,0.0
Aquoness Cathery,0.0
Arabella Bradford,0.0
Archie Chambers,0.0
Ariane McCree,0.013182674199623353
Aric Moody,0.0
Ariel Levy,0.0007550018875047187
Aries Clark,0.004341534008683068
Arika Hainesworth,0.0
Ariston Waiters,0.0
Arkeyvion White,0.0
Armand Beckwith-Bell,0.0
Armand Martin,0.0
Armando Frank,0.0015444015444015444
Armetta Foster,0.0
Armond Brown,0.0
Arneilus Brown,0.0
Arnell States,0.0
Aron Jones,0.00027159152634437803
Artago Howard,0.0
Arteair Porter,0.0
Arther McAfee,0.0
Arthur Coleman,0.0
Arthur DaRosa,0.0
Arthur Keith,0.0
Arthur McDougald,0.0
Arthur Raleigh,0.0
Arthur Walton,0.0
Arthur Williams,0.003837719298245614
Arties Manning,0.0
Arushary Goodwill,0.0
Arvel Alston,0.0
Arvel Williams,0.0
Arvell Howell,0.0
Ashanti Pinkney,0.0
Ashaunti Butler,0.0005367686527106817
Ashtian Barnes,0.0005449591280653951
Ashton Broussard,0.0
Asif Blake,0.0
Askari Roberts,0.0
Asshams Manley,0.0
Atatiana Jefferson,0.21465968586387435
Aubrey Brown,0.0
Audrecas Davis,0.0
Augustus Crawford,0.0
Aura Rosser,0.004639392661324336
Austin Boyles,0.0
Austin Howard,0.011435105774728416
Austin Thomas,0.011417058428475487
Authur Robinson,0.0
Avery Cody,0.0
Avery Metrejean,0.0
Avery Richard,0.0
Avion Cotton,0.0
Avion McLean,0.0
Balantine Mbegbu,0.0
Balkrishna Booker,0.0
Barbara Lassere,0.0
Barion Blake,0.0
Baron Adams,0.00046425255338904364
Barrington Williams,0.00035855145213338117
Barry Bush,0.0002384358607534573
Barry Caldwell,0.0
Barry Deloatch,0.0
Barry Gedeus,0.0
Barry Hairston,0.0
Barry Louallen,0.0
Bartholomew Williams,0.0003255208333333333
Basil Berry,0.0
Basire Farrell,0.0
Bastiany Georges,0.0
Belton Lomax,0.0
Ben Fields,0.0
Benjamin Hickey,0.0003570153516601214
Benjamin Tyson,0.0
Bennie Branch,0.006589785831960461
Bennie Edwards,0.02040816326530612
Bennie Tignor,0.0
Benston Clinkscales,0.0
Bernard Bailey,0.0019136139967195188
Bernard King,0.03509639149777558
Bernard Lofton,0.0
Bernard Monroe,0.0
Bernard Pate,0.0
Bernard Peters,0.0
Bernard Powers,0.0
Bernard Wells,0.0
Bertrand Davis,0.0
Bertrand Martin,0.0
Bettie Jones,0.019397651863195507
Bianca Davis,0.0
Bill Jackson,0.0
Bill Jones,0.0029293299157817647
Billie Woolford,0.0
Billy Alexander,0.0
Billy Davis,0.008490566037735849
Billy Rucker,0.0
Billy Smith,0.00683371298405467
Bishar Hassan,0.0
Blake Bowman,0.0
Blige Cypress,0.0
Bobby Anderson,0.001941747572815534
Bobby Calhoun,0.0
Bobby Daniels,0.0015274949083503055
Bobby Duckworth,0.0
Bobby Gibbs,0.0
Bobby Gross,0.0017793594306049821
Bobby Hinton,0.0
Bobby Merrill,0.0
Bobby Moore,0.12225705329153605
Bobby Norris,0.0
Bobby Wallace,0.0
Booker Davis,0.0
Botham Jean,0.16324435318275154
Brad Masters,0.0
Bradford Etheredge,0.0
Bradford Gibson,0.0
Bradley Blackshire,0.004968944099378882
Bradley Blanton,0.0
Bradley Gastin,0.0
Brandon Bell,0.003316749585406302
Brandon Brown,0.008993576017130621
Brandon Clayton,0.0
Brandon Coles,0.0005813953488372093
Brandon Culpepper,0.0
Brandon Daniels,0.0
Brandon Davis,0.005291005291005291
Brandon Dunbar,0.0
Brandon Foster,0.001844532279314888
Brandon Foy,0.0
Brandon Francois,0.0
Brandon Gardner,0.0
Brandon Harper,0.0004675081813931744
Brandon Johnson,0.005862237420615535
Brandon Jones,0.03040645361464474
Brandon Joyner,0.0
Brandon Payne,0.0012457178449081284
Brandon Roberts,0.0
Brandon Smith,0.01192504258943782
Brandon Taylor,0.00228310502283105
Brandon Webber,0.017266187050359712
Brandon Webster,0.0
Brandon Wiley,0.0
Branndon Jefferson,0.0
Brenda Harrison-Bumbray,0.0
Brenda Williams,0.00022925263640531865
Brendan Singleton,0.0
Brendon Glenn,0.00045578851412944393
Brent Durbin-Daniel,0.0
Brent Martin,0.0
Breonna Taylor,0.5785714285714286
Brett Bush,0.0
Brian Acton,0.004070556309362279
Brian Bellamy,0.0
Brian Crawford,0.0
Brian Easley,0.0
Brian Floyd,0.0
Brian Harris,0.0007414730598121602
Brian King,0.0009146341463414635
Brian Nichols,0.0067784516589368534
Brian Pickett,0.0
Brian Powell,0.0007577671129072998
Brian Simms,0.0010500525026251313
Brian Statler,0.0
Brian Woods-Davenport,0.0
Brian Ziro,0.0
Briatay McDuffie,0.0
Brice Jefferson,0.0
Broderick Dixon,0.0
Broderick Huggins,0.0
Broderick Johnson,0.0015854141894569957
Brownie Polk,0.0
Bruce Cain,0.0
Bruce Carter,0.0036540803897685747
Bruce Johnson,0.0012360939431396785
Bruce Kelley,0.0
Bruce Robinson,0.0043171114599686025
Bryan Day,0.0
Bryan Gregory,0.0
Bryan Stukes,0.0
Bryan Wallace,0.0
Bryant Henry,0.010719754977029096
Bryant Stallings,0.0
Burgon Sealy,0.0006798096532970768
Burnette Taylor,0.0
Burrell Ramsey-White,0.0015718327569946558
Burt Johnson,0.0
Byron Carter,0.0002754820936639118
Byron Herbert,0.0
Byron Matthews,0.0
Byron Williams,0.011475409836065573
Cacedrick White,0.0
Caesar Adams,0.0
Caine Pelt,0.0
Caleb Jackson,0.0
Calin Roquemore,0.0
Callion Hamblin,0.0
Calvin Cross,0.0
Calvin McKinnis,0.0
Calvin Peters,0.00042716787697565144
Calvin Robinson,0.00220125786163522
Calvin Smith,0.0
Calvin Toney,0.0015735641227380016
Calvin Wallace,0.0
Calvon Reid,0.0
Cameron Bennett,0.0
Cameron Gover,0.0
Cameron Hall,0.0
Cameron Lamb,0.013435700575815739
Cameron Massey,0.0
Cameron Tillman,0.004549214226633582
Cardell Vance,0.0
Cariann Hithon,0.0007651109410864575
Carl Ballard,0.0
Carl Blossomgame,0.0
Carl Brennan,0.0
Carl Brewster,0.0
Carl Dorsey,0.0
Carl Johnson,0.007003501750875438
Carl Tatum,0.0
Carleton Wallace,0.0003161555485298767
Carlo Alcis,0.0
Carlos Blackman,0.0
Carlos Blanche,0.0
Carlos Boles,0.0
Carlos Brown,0.0011299435028248588
Carlos Charles,0.0
Carlos Crompton,0.0
Carlos Davenport,0.0
Carlos Harris,0.0
Carlos High,0.0
Carlos Runyon,0.0
Carlton Brooks,0.0
Carlton Lewis,0.0
Carlton Murphy,0.0
Carlton Smith,0.0004302925989672978
Carlumandarlo Zaramo,0.0
Carlvon Mayo,0.0
Carnell Gaines,0.0
Carnell Snell,0.0023823704586063135
Carnell Williams,0.0011029411764705882
Carulus Hines,0.0
Cary Ball,0.0010221465076660989
Casey Goodson,0.16233766233766234
Caso Jackson,0.0
Catawaba Howard,0.0
Cecil Tinker-Smith,0.0
Cedarian Crow,0.0
Cedric Ford,0.0015806111696522655
Cedric Hill,0.0
Cedric Howard,0.0
Cedric May,0.0
Cedric Mifflin,0.0
Cedric Norris,0.0
Cedric Pritchard,0.0
Cedric Stanley,0.0
Cedric Stephens,0.0
Cedric Telasco,0.0
Cedric Williams,0.00048192771084337347
Cedrick Bishop,0.0
Cedrick Chatman,0.0009861932938856016
Chacarion Avant,0.0
Chad Pierce,0.0
Chad Robertson,0.005161290322580645
Chan Lieth,0.0
Chance Baker,0.0
Chanda Pickney,0.0
Chandra Moore,0.0
Chanell Brown,0.005376344086021506
Channara Pheap,0.0
Charal Thomas,0.0
Charleena Lyles,0.040169133192389
Charles Baker,0.0013324450366422385
Charles Ballard,0.0
Charles Broadway,0.0
Charles Brousard,0.0
Charles Brown,0.01712566535524184
Charles Curl,0.0
Charles Foard,0.0
Charles Goodridge,0.00040096230954290296
Charles Hull,0.0
Charles Jennings,0.0
Charles Johnson,0.07295445384925434
Charles Kitchens,0.0
Charles Livingston,0.0
Charles Logan,0.0
Charles McBride,0.0
Charles Meadows,0.0
Charles Moses,0.0
Charles Murry,0.0
Charles Pettit,0.0
Charles Robinson,0.011102886750555145
Charles Rosemond,0.0015189873417721519
Charles Roundtree,0.012861736334405145
Charles Roy,0.0
Charles Smith,0.009079653322327692
Charles Webb,0.0
Charles Ziegler,0.0
Charles lll,0.0
Charleston Newby,0.0
Charlie Bates,0.00035714285714285714
Charlie Chambers,0.0
Charlin Charles,0.0
Charly Keunang,0.0017706949977866313
Charmin Bennett,0.0
Chastain Montgomery,0.0
Chavius Hollis,0.0
Chaz Williams,0.0195558501823003
Chazz Brown,0.0
Che Taylor,0.0026288117770767614
Chenard Winfield,0.0
Cheri Anaya,0.0
Chester Crestwell,0.0
Chester Jenkins,0.0
Chester Ward,0.0007886435331230284
Chinedu Okobi,0.011615628299894404
Chris Joseph,0.0
Chris Provost,0.0
Chrislon Talbott,0.0
Christian Eaddy,0.0
Christian Freeman,0.0
Christian Green,0.0006983240223463687
Christian Taylor,0.015238095238095238
Christine Squire,0.0
Christopher Brimsey,0.0
Christopher Brown,0.010153846153846154
Christopher Calhoun,0.0
Christopher Carroll,0.0
Christopher Clapp,0.0
Christopher Clark,0.0
Christopher Davis,0.0008092797410304828
Christopher Dew,0.0
Christopher Doss,0.0
Christopher Eisinger,0.0
Christopher Glass,0.0
Christopher Goodlow,0.0
Christopher Hagans,0.0
Christopher Hall,0.0
Christopher Harris,0.0
Christopher Jones,0.00040032025620496394
Christopher Kalonji,0.0
Christopher Kissane,0.0
Christopher Knight,0.0021108179419525065
Christopher McCorvey,0.0
Christopher McGowan,0.0
Christopher McKinney,0.0
Christopher Middleton,0.0
Christopher Mitchell,0.013636363636363636
Christopher Monroe,0.0
Christopher Nash,0.00034153005464480874
Christopher Nelms,0.0005327650506126798
Christopher Okamoto,0.0
Christopher Redding,0.0
Christopher Shackleford,0.0
Christopher Sowell,0.0
Christopher Stirkens,0.0
Christopher Stone,0.002004008016032064
Christopher Taylor,0.009342676009342675
Christopher Thomas,0.0018547140649149924
Christopher Thompkins,0.0
Christopher Wade,0.0013404825737265416
Christopher White,0.0004589261128958238
Christopher Whitfield,0.0035026269702276708
Christopher Willis,0.0
Christopher Winston,0.0
Christopher Wright,0.0053842388644150755
Chucky Jackson,0.0
Chukwumankpam Mbegbu,0.0
Ciara Lee,0.0013175230566534915
Cimarron Lamb,0.0
Cindy West,0.0
Cinque D'Jahspora,0.0
Cjavar Galmon,0.0
Clarence Coats,0.0
Clarence Dorris,0.0
Clarence Howard,0.0
Claude Ellis,0.0
Claude Fain,0.0
Claude Jolicoeur,0.0
Claudell Webb,0.0
Clayton James,0.00026253609871357313
Clayton Lewis,0.00022271714922048998
Cleman Sweptson,0.0
Cleodus Castleberry,0.0
Cleotha Mitchell,0.0006157635467980296
Cletis Williams,0.0
Clevonta Reynolds,0.0
Clifford Butler,0.0
Clifford Cook,0.0
Clifford McLean,0.0
Clifton Armstrong,0.0
Clifton McKinney,0.0
Clifton Watts,0.0
Clinton Allen,0.0003355704697986577
Clyde Murray,0.0
Clyde Ratcliff,0.0
Coby Lewis,0.0
Cody Point,0.0
Colby Friday,0.0011594202898550724
Colby Robinson,0.0004514672686230248
Cole Wooley,0.0
Coleman Sample,0.0
Connell Lindsey,0.0
Corby Bradford,0.0
Cordale Handy,0.0006605019815059445
Corey Bailey,0.0
Corey Boykin,0.0
Corey Brown,0.016098226466575716
Corey Byrd,0.0
Corey Harris,0.0
Corey Hayes,0.0
Corey Jones,0.010355029585798817
Corey McGinnis,0.0
Corey McNeal,0.0
Corey Mobley,0.0008333333333333334
Corey Nesbitt,0.0
Corey Simpson,0.0002731494127287626
Corey Tanner,0.0
Corey Thomas,0.0
Cornelius Brown,0.000500751126690035
Cornelius Harrison,0.0
Cornelius Johnson,0.0014228124258951862
Cornelius Parker,0.0
Cornelius Towns,0.0
Cornelius Turner,0.0
Cornell Lockhart,0.0
Corsean Lewis,0.0
Cortdalro Brown,0.0
Cortez Bufford,0.0
Cortez Coburn,0.0
Cortez Hamm,0.0
Cortez Shepherd,0.0
Cortez Washington,0.0
Cory Croom,0.0
Cory Dix,0.0
Cory Jones,0.0026650873556411016
Cory Joyner,0.0
Courtney Edwards,0.0
Courtney Holloman,0.0
Courtney McGowan,0.0004479283314669653
Craig Demps,0.0
Craig Frye,0.0
Craig Hall,0.004610226320201173
Craig McKinnis,0.0
Craig Rodgers,0.0
Craig Ruise,0.0
Crayton West,0.0
Crederick Joseph,0.0
Crystal Ragland,0.002824858757062147
Crystaline Barnes,0.0
Curtis Deal,0.0012903225806451613
Curtis Jordan,0.0
Curtis Robinson,0.0
Curtis Smith,0.01536983669548511
Curtis Stagger,0.0028169014084507044
Curtis Tassin,0.0
Curtis Williams,0.0
Cynthia Fields,0.0
D'Andre Berghardt,0.0
D'Angelo Davis,0.0
D'Angelo Stallworth,0.0
D'Mario Perkins,0.0
D'Quan Young,0.0
D'ettrick Griffin,0.0
D'ovion Perkins,0.0
DaNathe Gulliford,0.0
DaShaun Winston,0.0
DaShawn Cole,0.0
Dacion Steptoe,0.0
Daezion Turner,0.0
Dahir Adan,0.004134672179562906
Dai'Shawn Brown,0.0
Dainell Simmons,0.0
Dajuan Graham,0.0
Dakota Bright,0.0003223726627981947
Dale Garrett,0.0
Dale Mitchell,0.0005403944879762226
Dallas Connor,0.0
Dalton Branch,0.0
Dalton Smith,0.0006868131868131869
Dalvin Hollins,0.0
Damain Martin,0.0
Damarius Butts,0.0
Damian Daniels,0.01568627450980392
Damian Murray,0.0
Damien Harrell,0.0
Damion Collier,0.0
Damon Abraham,0.0
Damon Barnett,0.0
Damon Beal,0.0
Damon Byrd,0.0
Damon Falls,0.0
Damon Hall,0.0
Dana Dubose,0.0
Dana Fletcher,0.0
Dana Wells,0.0
Dana Young,0.0
Danata'e Franklin,0.0
Dane Scott,0.000299311583358276
Daniel El,0.0
Daniel Geiger,0.0
Daniel Hambrick,0.00984251968503937
Daniel Hathorne,0.0
Daniel King,0.0024600246002460025
Daniel Martin,0.0015331544653123803
Daniel Mingo,0.0
Daniel Prude,0.07073170731707316
Daniel Rhodes,0.0
Daniel Simms,0.0
Daniel Wolfe,0.0
Daniel Yealu,0.0
Daniell Johnson,0.0
Dannie Whitmore,0.0
Dannie Young,0.0
Danny Ferguson,0.0006347191367819739
Danny Lee,0.00496031746031746
Danny Thornton,0.0003672420124862284
Danny Washington,0.0
Danny Withers,0.0
Danquirs Franklin,0.0103359173126615
Danroy Henry,0.0028534370946822307
Dante Holden,0.0
Dante Jones,0.0
Dante Osborne,0.0
Dante Parker,0.007723577235772358
Danzel Boyd,0.0
Daquan Hendrix,0.0
Daquan Westbrook,0.0010198878123406426
Darell Richards,0.002053388090349076
Darick Napper,0.0
Darin Hutchins,0.0
Darion Baker,0.0
Darion Jones,0.0
Darius Colegarrit,0.0
Darius Graves,0.0
Darius Ingram,0.0
Darius Jones,0.001226993865030675
Darius Miller,0.01780185758513932
Darius Murphy,0.0
Darius Pinex,0.00026504108136761196
Darius Smith,0.004030226700251889
Darius Tarver,0.01059322033898305
Darius Washington,0.0
Darius Wimberly,0.0
Darnell Benson,0.0
Darnell Hutchinson,0.0
Darnell McNeil,0.0
Darnell Robinson,0.0
Darnell Russell,0.0
Darnell Stafford,0.0
Darnell Wicker,0.001154068090017311
Darnesha Harris,0.0003248862897985705
Darnesha Ratliff,0.0
Darrall Thomas,0.0
Darrel Brown,0.0
Darrell Allen,0.0
Darrell Atkinson,0.0
Darrell Banks,0.0003284072249589491
Darrell Brown,0.0013556258472661546
Darrell Carter,0.0
Darrell Gatewood,0.0
Darrell Haymon,0.0
Darrell King,0.0
Darrell Logan,0.0
Darrell Mobley,0.0
Darrell Parnell,0.0
Darrell Swain,0.0
Darrell Williams,0.0026265520534861507
Darrell Zemault,0.004273504273504274
Darren Burley,0.0
Darren Green,0.0
Darren Williams,0.0014727540500736377
Darreon Neal,0.0
Darrick Collins,0.0
Darrien Hunt,0.02632661456190868
Darrien Walker,0.0
Darrin Hanna,0.0
Darrin Hogg,0.0
Darrin Langford,0.0
Darrion Barnhill,0.0
Darris Johnson,0.0
Darrius Kennedy,0.00031338138514572234
Darrius Lowery-Baptiste,0.0
Darrius Stewart,0.004243281471004243
Darryl Bain,0.0
Darryl Chisholm,0.0
Darryl Cunningham,0.0
Darryl Dookhran,0.0
Darryl Drayton,0.0
Darryl Elder,0.0
Darryl Ellis,0.0
Darryl Fuller,0.0
Darryl Fuqua,0.0
Darryl Moore,0.00026455026455026457
Darryl Mount,0.0
Darryl Wiggins,0.0
Darryll Briston,0.0
Darwin Foy,0.0
Daryl Berry,0.0
Daryl Jordan,0.0
Daryll Blair,0.0
Dashaude Carr,0.0
Dashaun Shepard,0.0
Dashawn Vasconcellos,0.0
Dason Peters,0.0
Datwan Lewis,0.0
Daunte Wright,0.0
Dave Bailey,0.0
David Alexis,0.0
David Anderson,0.04085603112840467
David Atkinson,0.0
David Baker,0.02522935779816514
David Bell,0.04772079772079772
David Butler,0.0021152829190904283
David Crosby-Dowdy,0.0
David Darden,0.0
David Dawkins,0.0
David Elcock,0.0
David Ellis,0.0024459845087647777
David Facen,0.0
David Felix,0.002268602540834846
David Hall,0.0049504950495049506
David Joseph,0.009921671018276762
David Latham,0.0
David Long,0.026850507982583455
David McAtee,0.07058823529411765
David Okot,0.0
David Rogers,0.008114089009097615
David Scott,0.031855359448988374
David Smith,0.03411131059245961
David Strong,0.00030358227079538557
David Turner,0.005572582892170521
David Warren,0.0030272452068617556
Davinian Williams,0.0
Davion Edison,0.0
Davion Henderson,0.0
Daviri Robertson,0.0
Davon Jackson,0.0
Davon Johnson,0.00022941041523285156
Davon Mullins,0.0
Davon Sealy,0.0
Dawaski Sanders,0.0
Dawayne Grant,0.0
Dawntrae Williams,0.0
Dawonne Matthews,0.0
Dawud Alexander,0.0
Dawud Culver,0.0
Dayten Harper,0.0
Dayvon Bennett,0.005494505494505495
Dazion Flenaugh,0.0
De'Aire Gray,0.0
De'Angelo Brown,0.0
De'Eric Bailey,0.0
De'Trell Crews,0.0
De'Von Bailey,0.006220839813374806
DeAndre Armstrong-Starks,0.0
DeAndre Bethea,0.0
DeAngelo Webb,0.0
DeFarra Gaymon,0.0
DeJuan Colbert,0.0
DeJuan Guillory,0.0035688793718772305
DeMarco Riley,0.0
DeMarlo Hobbs,0.0
DeOntre Dorsey,0.0
DeRicco Holden,0.0
DeShawn Tatum,0.0
DeVante Brown,0.0
DeVaughdre Rogers,0.0
DeWayne Craddock,0.01272984441301273
DeWayne North,0.0
DeWayne Watkins,0.0
Deandra Pye,0.0
Deandre Seaborough-Patterson,0.0
Deangelo Foxworth,0.0
Deangelo Lopez,0.0
Deangelo Martin,0.0
Deangelo Webb,0.0
Deanna Williams,0.0
Dearian Bell,0.0
Deaundre Phillips,0.0
Deaunte Bell,0.0
Deautry Ross,0.0
Deborah Danner,0.013237063778580024
Debro Wilkerson,0.0
Decarlos Moore,0.0
Decynthia Clements,0.012152777777777778
Dedrick Marshall,0.0
Deion Fludd,0.0010259917920656635
Dejon White,0.0
Dejuan Eaton,0.0
DelShawn Crawford,0.0
Delano Smith,0.0
Delano Williams,0.0
Delfon Kinney,0.0
Delrawn Small,0.006787330316742082
Delric East,0.0
Deltra Henderson,0.0
Deltric Caldwell,0.0
Delvin Simmons,0.0009970089730807576
Demarco Newman,0.0
Demarco Rhymes,0.0
Demarco Washington,0.0
Demarcus Semer,0.0005434782608695652
Demario Bass,0.0
Demaris Turner,0.0
Demetrice Presnall,0.0
Demetrious Brooks,0.0
Demetrius Bennett,0.0
Demetrius Bryant,0.0
Demetrius Dorsey,0.0
Demetrius Edens,0.0
Demetrius Johnson,0.0027122321670735015
Demetrius Martin,0.0
Demetrius Moore,0.0
Demetrius Williams,0.0
Demilo Hodge,0.0037936267071320183
Demonjhea Jordan,0.0
Demonta Gaither,0.0
Demontre Bruner,0.0
Demontry Boyd,0.0
Demouria Hogg,0.0032377428307123032
Denevious Thomas,0.0
Deng Manyoun,0.0
Denis Reynoso,0.0
Denise Gay,0.0
Dennis Clark,0.0003403675970047651
Dennis Gregory,0.00024330900243309004
Dennis Grisgby,0.0
Dennis Hickman,0.0
Dennis Hicks,0.0
Dennis Hudson,0.0
Dennis Lazard,0.0
Dennis Plowden,0.0016299918500407497
Dennis Rogers,0.0
Dennis Watson,0.0
Dennis Willis,0.0
Denzel Brown,0.0
Denzel Curnell,0.0007958615200955034
Denzel Taylor,0.005361930294906166
Deomain Hayman,0.0
Deon Kay,0.06072874493927125
Deon Williams,0.0007010164738871364
Deonta Griffin,0.0
Deonta Mackey,0.0
Deonte Jenkins,0.0
Deonte Traylor,0.0
Deontea Mackey,0.0
Deosaran Maharaj,0.0
Dequan Williams,0.0
Deravis Rogers,0.0011242270938729624
Derek Love,0.0
Derek McKinnon,0.0
Derek Smith,0.002574002574002574
Derek Stokes,0.0
Derek Walker,0.00035855145213338117
Derek Williams,0.0005566379070414695
Deresha Armstrong,0.0
Dereshia Blackwell,0.0
Deriante Miller,0.0
Deric Brown,0.0
Derick Alexander,0.0
Derick Powe,0.0
Derold Stewart,0.0
Deron Kittrell,0.0
Derrec Shaw,0.0
Derreck Mack,0.0
Derrick Abernathy,0.0
Derrick Ambrose,0.0
Derrick Birdow,0.0
Derrick Brabham,0.0
Derrick Canada,0.0
Derrick Dukes,0.0
Derrick Edmond,0.0
Derrick Everett,0.0
Derrick Flynn,0.0
Derrick Gaines,0.0006138735420503376
Derrick Humbert,0.0
Derrick Hunt,0.0
Derrick Jones,0.09444299504304722
Derrick Miller,0.01916376306620209
Derrick Sellman,0.0
Derrick Suttle,0.0
Derrick Vaccianna,0.0
Derrick Watkins,0.0
Derrinesha Clay,0.0
Desean Pittman,0.0008173273395995096
Deshawn Carswell,0.0
Deshon Downing,0.0
Deshone Travis,0.0
Deshund Tanner,0.0
Desjon Edwards,0.0
Desmon Ray,0.0
Desmond Franklin,0.002544529262086514
Desmond Hayes,0.0
Desmond Luster,0.00043878894251864854
Desmond Phillips,0.001984126984126984
Desmond Willis,0.000899685110211426
Destin Thomas,0.0
Detandel Pickens,0.0
Detravian Allison,0.0
Detric Muhiman,0.0
Devante Hinds,0.0
Devaron Wilburn,0.0
Devel Hill,0.0
Deveonte Johnson,0.0
Deviere Ransom,0.0
Devin Gates,0.0
Devin Harris,0.0
Devin Howell,0.0
Devin Johnson,0.00036643459142543056
Devin Taylor,0.005902454178316247
Devin Walker,0.0002503755633450175
Devon Dockery,0.0
Devon Guisherd,0.0
Devon Holder,0.0
Devon Martes,0.001145475372279496
Devon Mitchell,0.0
Devon Ross,0.0
Devon Spencer,0.00023507287259050304
Devon Woods,0.0
Devonte Gates,0.0
Devonte' Bowman,0.0
Dewayne Bailey,0.0
Dewayne Carr,0.0
Dewayne Ward,0.0
Dewboy Lister,0.0007722007722007722
Dexter Addison,0.0
Dexter Bethea,0.0
Dexter Fair,0.0
Dexter Luckett,0.0
Diahlo Grant,0.0
Diamond Ross,0.002014098690835851
Diamonte Riviore,0.0
Diane Louallen,0.0
Diante Yarber,0.0070921985815602835
Dijon Kizzee,0.06827309236947791
Dijon Watkins,0.0
Dijon Williams,0.0002229654403567447
Dimaggio McNelly,0.0
Dimarkchrisy Majors,0.0
Dimetri Polen,0.0
Dimitri Sutton,0.0
Dimitrie Penny,0.0
Dimitrius Baldwin,0.0
Dion Brown,0.0
Dion Johnson,0.025936599423631124
Dion Ramirez,0.0
Dionne Brown,0.0
Dionne Jordan,0.0
Dirk Smith,0.0
Dishon McBride,0.0
Divonte Young,0.0
Djuantez Mitchell,0.0
Dnary Fowler,0.0
Dolal Idd,0.0546875
Doll Louis,0.0
Dominic Davis,0.0011475786091347257
Dominic Hutchinson,0.0
Dominic Neal,0.0
Dominick Wise,0.0
Dominique Battle,0.0005367686527106817
Dominique Campbell,0.0
Dominique Clayton,0.055632823365785816
Dominique Franklin,0.0011732499022291747
Dominique Harris,0.0
Dominique Jean,0.0
Dominique Lewis,0.0004020908725371934
Dominique Mulkey,0.02512562814070352
Dominique Silva,0.0
Dominique Smith,0.00024832381425378696
Dominique White,0.0
Dominique Williams,0.0
Dominque Anderson,0.0
Domonick Washington,0.0
Don Clark,0.0
Don Smith,0.005405405405405406
Don White,0.0025575447570332483
DonTrunner Robinson,0.0
Donadony Taylor,0.0
Donald Ashcraft,0.0
Donald Davis,0.0
Donald Donald,0.0
Donald Hairston,0.0
Donald Haynes,0.0
Donald Ivy,0.001347103726986978
Donald Janvier,0.0
Donald Johnson,0.0005877167205406994
Donald Moore,0.0
Donald Saunders,0.0
Donald Ward,0.0
Donaven Anderson,0.0
Donell Miller,0.0
Donnell Carter,0.0
Donnell Thompson,0.0017201834862385322
Donnie Brownlow,0.0
Donnie Miles,0.0
Donnie Plater,0.0
Donnie Sanders,0.004750593824228029
Donny Walker,0.0
Donovan Bayton,0.0
Donovan Morris,0.0
Donovan Thomas,0.0
Donovon Lynch,0.0
Donquale Gray,0.0
Donta Taylor,0.002913752913752914
Dontae Green,0.0
Dontae Hayes,0.0
Dontae Jordan,0.0
Dontae Martin,0.0
Dontaylo Wright,0.0
Donte Johnson,0.0005630630630630631
Donte Jones,0.0
Donte Jordan,0.0
Donte Noble,0.0
Donte Shannon,0.0041459369817578775
Donte Sowell,0.0
Donteau Napier,0.0
Dontell Terrell,0.0
Dontez O'Neal,0.0
Dontre Bennett,0.0
Dontre Hamilton,0.020670826833073322
Dontrell Carter,0.0
Donyale Rowe,0.0
Douglas Cooper,0.0
Douglas Harris,0.0
Douglas Rainey,0.0
Doward Baker,0.0
Dravious Burch,0.0
Dreasjon Reed,0.07103825136612021
Duane Brown,0.030267411107846018
Duane Strong,0.0
Dumone Starks,0.0
Durall Miller,0.0
Dushine Smith,0.0
Dustin Fant,0.0
Dustin Glover,0.0
Dustin Jones,0.0
Dustin Powell,0.0
Dustin Williamson,0.0
Dvontai Wright,0.0
Dwayne Birmingham,0.0
Dwayne Jeune,0.0007267441860465116
Dwayne Pritchett,0.0
Dwayne Tribbett,0.0
Dwight Jones,0.007650542941757157
Dwight Person,0.0
Dwight Ross,0.0
Dwight Steward,0.0
Dylan Samuel-Peters,0.0
Dytadious Mobley,0.0
Dyzhawn Perkins,0.0
Earl Brown,0.0003180661577608143
Earl Eubanks,0.0
Earl Facey,0.0
Earl Jackson,0.0
Earl Pinckney,0.0
Earl Rhodes,0.0
Earl Riley,0.0
Earnest Easterling,0.0
Earnest Fells,0.0
Earnest Mitchell,0.0
Ed Williams,0.0014134275618374558
Eddie Davis,0.0
Eddie Epperson,0.0
Eddie Hollins,0.0
Eddie Jones,0.043953315122920285
Eddie Macon,0.00039032006245121
Eddie Maxwell,0.0
Eddie Morris,0.0
Eddie Patterson,0.0
Edgar Owens,0.0
Edmond Fair,0.0
Edson Thevenin,0.0016251354279523294
Edtwon Stamps,0.0
Edward Barnett,0.0
Edward Bright,0.00043706293706293706
Edward Buckner,0.0
Edward Clark,0.004235907461713913
Edward Currie,0.0
Edward Foster,0.0
Edward Fuller,0.0
Edward Hallinan,0.0
Edward Irons,0.0
Edward McCrae,0.0
Edward Mwaura,0.0
Edward Russell,0.0
Edward Strother,0.0
Edward Taylor,0.005007153075822604
Edward Washington,0.0002957704821058858
Edward Wheaton,0.0002442598925256473
Edward Worthy,0.0
Efrem Carr,0.0
Ekom Udofia,0.0
Elarry Brumfield,0.0
Eldrin Smart,0.0
Eleanor Northington,0.0
Eliakim Shabazz,0.0
Elijah Brewer,0.0
Elijah Cobb,0.0
Elijah Collins,0.004405286343612335
Elijah Glay,0.0
Elijah Haggerty,0.0
Elijah Jackson,0.0008233841086867024
Elijah McClain,0.1945337620578778
Elijah Smith,0.0026666666666666666
Elip Cheatham,0.0
Elisha Glass,0.0
Elliot Barnes,0.0
Elliot Reed,0.0009140767824497258
Ellis Frye,0.0
Ellison Frye,0.0
Elmer Mack,0.0
Elmore Segura,0.0
Elray Barber,0.0
Elton Simpson,0.002276867030965392
Elvin Potts,0.0
Elwood Edwards-White,0.0
Emantic Bradford,0.020066889632107024
Emanuel Jean-Baptiste,0.0
Emanuel Johnson,0.0
Emanuel Oates,0.0
Emerson Crayton,0.00038211692777990065
Emmanuel Gatewood,0.0
Emmanuel Okutuga,0.0
Emmanuel Wooten,0.0
Emmett Till,0.21246396096695497
Ennice Ross,0.0
Ennis Labaux,0.0
Ensoa Strickland,0.0
Ephraim Williams,0.0
Epthen Johnson,0.0
Eric Andrews,0.0
Eric Arnold,0.0
Eric Bradley,0.0
Eric Bradwell,0.0
Eric Carter,0.00333889816360601
Eric Crawley,0.0
Eric Curtis,0.001697792869269949
Eric Forbes,0.0
Eric Garner,0.4460981496379727
Eric Garrison,0.0
Eric Harris,0.035742652899126294
Eric Higgs,0.0
Eric Logan,0.02894356005788712
Eric Lurry,0.01293103448275862
Eric McNeil,0.0
Eric Moon,0.0002794076557697681
Eric Phillips,0.0
Eric Pringle,0.0
Eric Radcliff,0.0
Eric Reason,0.003676470588235294
Eric Reid,0.07737556561085973
Eric Ricks,0.0
Eric Roberts,0.012450851900393184
Eric Senegal,0.0
Eric Stromer,0.0
Erica Collins,0.0
Erickson Brito,0.0
Erik Lee,0.0003590664272890485
Erik Robinson,0.0
Erik Stokes,0.0
Erik Turnbull,0.0
Ernest Barnett,0.0
Ernest Foster,0.0
Ernest Furr,0.0
Ernest Russell,0.0
Ernest Satterwhite,0.0007567158531971245
Ernest Vassell,0.0
Ernesto Lopez,0.0
Erroll Johnson,0.0
Ervin Edwards,0.0011033468186833395
Ervin Motley,0.0
Ervin Sweat,0.0
Esmond Trimble,0.0
Etoine Baucum,0.0
Etonne Tanzymore,0.0
Eugene Allen,0.0010424811050299713
Eugene Bompers,0.0
Eugene Ellison,0.0
Eugene Holder,0.0
Eugene McSwain,0.00046992481203007516
Eugene Nelson,0.0
Eugene Turner,0.0
Eugene Walker,0.0
Eugene Weathers,0.0
Eugene Webb,0.00023501762632197415
Eugene Williams,0.002071251035625518
Euree Martin,0.0
Eurie Stamps,0.0005298013245033113
Eusi Kater,0.0
Everette Howard,0.00028074115665356543
Ezell Ford,0.028037383177570093
Ezra Richard,0.0
Fatou-Mata Ntiamoah,0.0
Faustin Guetigo,0.0
Fednel Rhinvil,0.0
Felix Kumi,0.000481000481000481
Felton Watson,0.0
Ferell Tutt,0.0
Ferguson Laurent,0.0
Finan Berhe,0.005479452054794521
Fletcher Jackson,0.0
Flint Farmer,0.0002760905577029266
Floyd Beverly,0.0
Forenzo Walker,0.0
Francine Graham,0.011673151750972763
Francis Owens,0.0
Frank Davis,0.0016825574873808188
Frank Johnson,0.0021756867011150393
Frank Kelley,0.0011179429849077697
Frank McQueen,0.0
Frank Rhodes,0.0
Frank Shephard,0.0
Frankie Jennings,0.0
Frankie Pitt,0.0
Fred Barlow,0.0
Fred Brown,0.0
Fred Collins,0.0
Fred Williams,0.0
Freddie Allen,0.0
Freddie Blue,0.0
Freddie Burton,0.0
Freddie Gray,0.2169598556608029
Freddie Lockett,0.0
Freddy Baez,0.0
Frederick Asberry,0.0
Frederick Brown,0.0006609385327164573
Frederick Farmer,0.0
Frederick Grayson,0.0
Frederick Miller,0.0
Frederick Perkins,0.0
Frederick Roy,0.0
Frederick Washington,0.0
Frederick Wilburn,0.0
Fredrick Cox,0.0
Frito Valcin,0.0
Fritz LeAndre,0.0
Fritz Severe,0.0004636068613815484
Gabriel Casso,0.0
Gabriel Hood,0.0022123893805309734
Gabriel Parker,0.0006131207847946045
Gabriel Stevenson,0.0
Gabriel Winzer,0.0
Gamel Brown,0.00211864406779661
Garfield King,0.0002557544757033248
Garland Tyree,0.0
Garrick Heckstall,0.0
Gartrayl Baker,0.0
Gary Boitano,0.0
Gary Boyd,0.0
Gary Decker,0.0
Gary Hatcher,0.0
Gary Martin,0.01600985221674877
Gavin Long,0.002279202279202279
Gavin Williams,0.0027155465037338763
Gaylon Alexander,0.0
Gearil Williams,0.0
George Crenshaw,0.0
George Floyd,0.6397694524495677
George Golden,0.0003374957813027337
George Harvey,0.000697350069735007
George Job,0.0
George King,0.0035197497066875244
George Lash,0.0
George Mann,0.0
George McEachin,0.0
George Pryor,0.0
George Richards-Meyers,0.0
George Robinson,0.002366863905325444
George Tillman,0.0016251354279523294
George Walker,0.004971826317533974
George Wells,0.00030084235860409147
Gerald Allen,0.0
Gerald Black,0.0
Gerald Hall,0.0
Gerald Hilton,0.0
Gerald Johnson,0.0
Gerald Murphy,0.00034281796366129587
Geraldine Townsend,0.0
Gerdle Moise,0.0
Germichael Kennedy,0.0
Germonta Wallace,0.0
Gerrod Belin,0.0
Gibson Belizaire,0.0
Giovonni Joseph-McDade,0.0
Gleen Gomez,0.0
Glenda Taylor,0.0
Glenn Briggs,0.0
Glenn Deals,0.0
Glenn Humes,0.0
Glenn Lewis,0.0026513477684489617
Glenn Tyndell,0.0008539709649871904
Goldie Bellinger,0.0
Gordon Whitaker,0.0
Grady Wells,0.0
Grant King,0.0
Grechario Mack,0.0017809439002671415
Greg Gunn,0.003161222339304531
Greg Thompson,0.0007449714427613609
Gregory Campfield,0.0
Gregory Childress,0.0
Gregory Edwards,0.0022727272727272726
Gregory Frazier,0.0
Gregory Gray,0.0
Gregory Griffin,0.0
Gregory Hill,0.0052434456928838954
Gregory Hughes,0.00031220730565095225
Gregory Jackson,0.0
Gregory Johns,0.0
Gregory Lee,0.0
Gregory Maxwell,0.0
Gregory Mays,0.0
Gregory Rold,0.0
Gregory Sanders,0.0
Gregory Simmons,0.0
Gregory Taylor,0.0
Gregory Towns,0.0007742934572202865
Guy Jarreau,0.0
Gwendolyn Fields,0.0
Gwendolyn Killings,0.0
Hakim Littleton,0.023255813953488372
Hakim McNair,0.0
Hallis Kinsey,0.0
Haraesheo Rice,0.0
Harith Augustus,0.0048638132295719845
Harold Bennett,0.0
Harold Bobbitt,0.0
Harold Collins,0.0
Harold Daniels,0.003579952267303103
Harold Easter,0.002127659574468085
Harold Phillips,0.0
Harold Robinson,0.0
Harold Spencer,0.0
Harrison Carter,0.0
Harvey Fenderson,0.0
Harvey George,0.00022732439190725165
Hasani Best,0.0
Hashim Abdul-Rasheed,0.0
Hashim Wilson,0.0
Hassan Pratt,0.0
Hatchel Adams,0.0
Hayden Blackman,0.0
Haydon Taylor,0.0
Hedson Hilaire,0.0
Henry Bennett,0.0005159958720330237
Henry Green,0.0033407572383073497
Henry Jackson,0.0239880059970015
Henry Jones,0.004149377593360996
Henry Kiner,0.0
Henry Lee,0.018106734434561626
Henry Montgomery,0.0014270424545130217
Henry Williams,0.0008363534987454698
Herbert Gilbert,0.0
Herbert Harris,0.0
Herbert Hill,0.0
Herbert Johnson,0.0012714558169103624
Hernandez Dowdy,0.0
Herson Hilaire,0.0
Herve Gilles,0.0
Homer Warren,0.0
Horace Mitchell,0.00024354603019970775
Horace Parks,0.0
Horace Whiting,0.0
Howard Bowe,0.0003912363067292645
Howard Nevels,0.0
Howard Partee,0.0
Howard Polk,0.0
Howard Tucker,0.0
Howard Williams,0.0004971414367387521
Hugh Stevens,0.0
Husie Outing,0.0
Hussan Hosendove,0.0
Hussein Hassan,0.0007336757153338225
Hydra Lacy,0.00026624068157614486
Ian Sherrod,0.0
Icarus Randolph,0.0
Idris Abdus-Salaam,0.010126582278481013
Ike Hutcherson,0.0
India Beaty,0.0016
India Kager-Lowrance,0.0
India Nelson,0.0
Innes Lee,0.0
Ira Crawford,0.0
Irecas Valentine,0.0
Irma Rogers,0.0
Irwin Rand,0.0
Isaac Holmes,0.0013054830287206266
Isaac Jackson,0.0
Isaac Little,0.0
Isaac Ricks,0.0
Isaiah Core,0.0005617977528089888
Isaiah Green,0.0
Isaiah Hutchinson,0.0
Isaiah Lewis,0.023004059539918808
Isaiah Perkins,0.0
Isaiah Robinson,0.0
Isaiah Soehngen,0.0
Isaiah Tucker,0.0007267441860465116
Isak Aden,0.013333333333333334
Ishmael Muhammad,0.0009930486593843098
Isiah Hampton,0.0
Ismael Miranda,0.0
Issac Parker,0.00032530904359141186
Ivan Hardemon,0.0
Ivory Pantallion,0.0
Izael Jackson,0.0
JC Hawkins,0.0
JR Williams,0.0
Ja'Ray Coster,0.0
Ja'Ron Nero,0.0
JaQuavion Slaton,0.004297994269340974
Jabril Mitchell,0.0
Jabril Robinson,0.000550357732526142
Jacai Colson,0.006379585326953748
Jack Fields,0.0022123893805309734
Jack Roberson,0.0
Jack Young,0.006618531889290012
Jackie Ragland,0.0
Jackson Alexandre,0.0
Jacob Blake,0.3540856031128405
Jacob Ford,0.0
Jacob Harris,0.0023612750885478157
Jacob Nelson,0.0
Jacob Servais,0.0
Jacobe Hyatt,0.0
Jacorey Calhoun,0.0
Jacquarius Robinson,0.0
Jacquelyn Barnette,0.0
Jae Hardy,0.0
Jaesun Ingles,0.0
Jaffort Smith,0.0
Jah'Sean Hodge,0.0
Jahad Phillips,0.0
Jahind Davis,0.0
Jahlire Nicholson,0.0
Jahmal Stewart,0.0
Jai Williams,0.0
Jaison Fitzgerald,0.0
Jakerion Jackson,0.0
Jaleel Jackson,0.0
Jalen Ricks,0.00032530904359141186
Jalon Johnson,0.0
Jamaal Grant,0.0
Jamaal Moore,0.0
Jamaal Simpson,0.0
Jamaal Taylor,0.0
Jamaal Valentine,0.0
Jamaar Morton,0.0
Jamahl Smith,0.0
Jamake Thomas,0.0
Jamal Freeman,0.0
Jamal Muhammad,0.0
Jamal Rollins,0.0
Jamal Singletary,0.0
Jamalis Hall,0.0
Jamar Anderson,0.0
Jamar Clark,0.0255
Jamarco McShann,0.0
Jamarion Robinson,0.010944700460829493
Jamarr Hassell,0.0
Jamarri Tarver,0.0
Jamee Johnson,0.03333333333333333
Jameek Lowery,0.017584994138335287
Jameel Harrison,0.0
James Adell,0.0
James Alexander,0.011225997045790252
James Anderson,0.06452680344142951
James Bauduy,0.0
James Blackmon,0.0009881422924901185
James Bryant,0.0
James Carney,0.0
James Clay,0.0
James Coleman,0.0005773672055427252
James Cooke,0.0
James Covington,0.0
James Davis,0.008279430789133247
James Doe,0.0
James Felio,0.0
James Gray,0.02321305447023673
James Green,0.01816473535859693
James Griffin,0.0026437541308658294
James Harper,0.0015581177937052041
James Harris,0.00966726618705036
James Hartsfield,0.0
James Hawkins,0.0
James Hawley,0.0
James Haywood,0.0
James Hill,0.004377880184331797
James James,0.0
James Jenkins,0.0
James King,0.006625650733554188
James Kirkland,0.010536101642392316
James Kirkwood,0.0
James Lacy,0.0
James Lamont,0.0
James Leatherwood,0.0010256410256410256
James Lewis,0.013862633900441084
James McBride,0.0019540791402051783
James McKinney,0.0
James Miller,0.007590132827324478
James Norris,0.004154078549848943
James Owens,0.0012618296529968455
James Peoples,0.0
James Ray,0.005449591280653951
James Reed,0.00375
James Rich,0.0
James Rivera,0.0005073566717402334
James Simpson,0.00322061191626409
James Sims,0.002367175170962651
James Strong,0.0009212344541685859
James Tomlin,0.0
James Torres,0.0
James Tuggle,0.0
James Tyson,0.0020422055820285907
James Vaughn,0.0
James Waters,0.0
James Weldon,0.006638503319251659
James Winston,0.00953053300388281
Jamie Croom,0.00044444444444444447
Jamil Harvey,0.0
Jamil Moses,0.0
Jamil Murray,0.0
Jamison Childress,0.0
Jamyrin Points,0.0
Janet Wilson,0.015049299429164505
Janisha Fonville,0.0022026431718061676
Jaquan Haynes,0.0
Jaquan Thompson,0.0
Jaquaz Walker,0.0
Jaquyn Light,0.0
Jaqwan Terry,0.0
Jared Brown-Garnham,0.0
Jared Harris,0.00866113316492241
Jared Johnson,0.00045433893684688776
Jarmane Logan,0.0
Jarmar Hutchinson,0.0
Jarmel Cosby,0.0
Jarrad Hill,0.0
Jarrett Varnado,0.0
Jarvis Hayes,0.0
Jarvis Lykes,0.0
Jarvis Randall,0.0
Jarvis Sullivan,0.0
Jashod Carter,0.0
Jasman Washington,0.0
Jasmen Bruce,0.0
Jason Beard,0.0
Jason Brooks,0.0
Jason Cooper,0.0
Jason Harrison,0.0055577610162763
Jason Hendley,0.0
Jason King,0.011501210653753027
Jason Larkin,0.0
Jason Lewis,0.05371596762325239
Jason Martin,0.0035888233786208665
Jason Moland,0.0
Jason Moore,0.0019886363636363634
Jason Nalls,0.0
Jason Nightengale,0.0
Jason Pannell,0.0
Jason Pierce,0.0006105006105006105
Jason Stringer,0.0
Jason Washington,0.011505273250239693
Jasper Toney,0.0
Jataynun Fleming,0.0
Javaon Ousley,0.0
Javario Eagle,0.0
Javery Holliday,0.0
Javier Ambler,0.014267185473411154
Javin Ancrum,0.0
Javon Hawkins,0.0
Javon Neal,0.0
Javon Rakestrau,0.0002585315408479835
Javonta Darden,0.0
Javoris Washington,0.0
Jawari Porter,0.0005767012687427913
Jay Anderson,0.0011242270938729624
Jayden Young,0.0
Jaymil Ellerbe,0.0
Jayvis Benjamin,0.0003299241174529858
Jean Celestin,0.0
Jean Charles,0.018633540372670808
Jean Louis,0.005809128630705394
Jean Printemps,0.0
Jean Valescot,0.0
Jeff Tyson,0.0
Jeff Wilson,0.008495478213209099
Jeffery Adkins,0.0
Jeffery Jones,0.0
Jeffery Kemp,0.0
Jeffery Lilly,0.0
Jeffery McCallum,0.0
Jeffrey Dennis,0.0
Jeffrey Dunigan,0.0
Jeffrey Melvin,0.0
Jeffrey Ragland,0.0
Jeffrey Thomas,0.0002886836027713626
Jelani Edwards,0.0
Jelani Slay,0.0
Jemel Roberson,0.030837004405286344
Jerame Reid,0.003879310344827586
Jerand Ross,0.0
Jerard Drew,0.0
Jeray Chatham,0.0
Jeremiah Henderson,0.0
Jeremiah Mathis,0.0
Jeremiah Perdue,0.0
Jeremiah Randle,0.0
Jeremy Daniels,0.0
Jeremy Grayson,0.0
Jeremy Hill,0.07118294360385144
Jeremy Kelly,0.0
Jeremy Lake,0.0
Jeremy Lett,0.0
Jeremy Lewis,0.0036839950880065493
Jeremy McDole,0.001948368241597662
Jeremy Powell,0.00033840947546531303
Jeremy Southern,0.0
Jeremy Vann,0.0
Jerick Gray,0.0
Jermaine Benjamin,0.0
Jermaine Claybrooks,0.0
Jermaine Coleman,0.0
Jermaine Darden,0.0
Jermaine Johnson,0.005698005698005698
Jermaine Lucas,0.0
Jermaine Massey,0.005240174672489083
Jermaine McBean,0.0021149101163200562
Jermaine Williams,0.0010149708195889369
Jermar McKinzie,0.0
Jermassioun Rodgers,0.0
Jermie McCraven,0.0
Jermon Seals,0.0
Jermonte Fletcher,0.0
Jerome Allen,0.0025789813023855577
Jerome Blackmon,0.0
Jerome Caldwell,0.0
Jerome Christmas,0.0
Jerome Corley,0.0
Jerome Damon,0.0011716461628588166
Jerome Darby,0.0
Jerome Dixon,0.0
Jerome Harmon,0.0
Jerome Hart,0.0
Jerome James,0.0029455081001472753
Jerome Thompkins,0.0
Jerome Uzzle,0.0
Jerome Williams,0.010325245224574084
Jerric Harris,0.0
Jerrick Lane,0.0
Jerry Conner,0.0
Jerry Foster,0.0
Jerry Graham,0.0004955401387512388
Jerry Gray,0.00800753650494583
Jerry Moore,0.003045404208194906
Jerry Nowlin,0.0
Jerry Petty,0.0
Jerry Richardson,0.026397515527950312
Jerry Weaver,0.0
Jerry Wilson,0.0
Jersey Green,0.0005982650314089142
Jesse Brown,0.005474952094169176
Jesse Quinton,0.0
Jesse Scarsbrook,0.0
Jessica Williams,0.03307607497243661
Jessie Cooper,0.0
Jessie Jones,0.0
Jessie Long,0.0
Jessie Stringfield,0.0
Jesus Gillard,0.0
Jeterious Moore,0.0
Jethro Benjamin,0.0009727626459143969
Jhmari McCoy,0.0
Jihad Merrick,0.0
Jim Heard,0.00025
Jimmell Cannon,0.0002797985450475658
Jimmie Matthews,0.0
Jimmie Phillips,0.0
Jimmie Sanders,0.0
Jimmy Allen,0.0
Jimmy Atchison,0.0011961722488038277
Jimmy Bigges,0.0
Jimmy Robinson,0.00043782837127845885
Jimmy Terry,0.0
Jimmy Washington,0.0
Jkhary Craft,0.0
Joan Reese,0.0
Jocques Clemmons,0.001292824822236587
Joe Huff,0.0
Joe Spruill,0.0
Joe White,0.004857737682165163
Joel Acevedo,0.005221932114882507
Joel Muturi,0.0
Joell Johnson,0.0
Joeshawn Williams,0.0
Joetavius Stafford,0.0
Joey Bronson,0.0
Joey Ramirez,0.0
John Allen,0.06125356125356125
John Bailon,0.0
John Bazemore,0.0015698587127158557
John Brisco,0.0
John Carr,0.0012505210504376823
John Coburn,0.0
John Coleman,0.0197318492284341
John Crawford,0.10741791649777058
John Deng,0.0
John Feggins,0.0
John Howell,0.0018214936247723133
John Hurd,0.0002486943546381497
John Husband,0.0
John Johnson,0.020963855421686748
John Jolley,0.0
John Mccullough,0.0
John Monroe,0.0
John Murray,0.010074626865671642
John Parker,0.012670890296765588
John Payne,0.0015349194167306216
John Schneider,0.055621771950735005
John Sloan,0.0008237232289950577
John Spaulding,0.0
John Young,0.04504504504504504
Johnathan Bratcher,0.0
Johnathan Liddell,0.0
Johnathan Smith,0.00027005130974885227
Johnn Wilson,0.0
Johnnie Harris,0.0
Johnnie Warren,0.0
Johnny Burney,0.0
Johnny Carter,0.0
Johnny Harris,0.002482005460412013
Johnny Lloyd,0.0
Johnny Richardson,0.0
Johnny Simms,0.0
Johnny Weeks,0.0
Johnny Wicks,0.0002414875633904854
Johntwa Bosley,0.0
Jomekia Minter,0.0
Jonas Joseph,0.026737967914438502
Jonathan Alexander,0.0008873114463176575
Jonathan Asuzu,0.0
Jonathan Bennett,0.013201320132013201
Jonathan Darsaw,0.0
Jonathan Ferrell,0.030802292263610316
Jonathan Hann,0.0
Jonathan Jefferson,0.0
Jonathan Johnson,0.0010720986330742428
Jonathan Price,0.05555555555555555
Jonathan Rodgers,0.00036859565057132326
Jonathan Sanders,0.004225352112676056
Jonathan Stokes,0.0
Jonathan Swindle,0.0
Jonathan Wilcher,0.0
Jonathan Williams,0.027766599597585512
Jonathon Buckley,0.0
Jonie Block,0.0
Jonte House,0.0
Jontell Reedom,0.0
Jordan Baker,0.00712143928035982
Jordan Davis,0.11143505021056041
Jordan Edwards,0.04016337644656229
Jordan Frazier,0.0014044943820224719
Jordan Roberts,0.0026954177897574125
Jordan Walls,0.0
Jordan West-Morson,0.0
Jorevis Scruggs,0.0
Jose Franco,0.0
Jose Quinonez,0.0003650967506389193
Jose Valerio,0.0
Josef Richardson,0.0015337423312883436
Joseph Crawford-Lamal,0.0
Joseph Denton,0.0
Joseph Forrest,0.0
Joseph Givens,0.0
Joseph Jewell,0.0
Joseph Johnson-Shanks,0.0009699321047526673
Joseph Mann,0.002271436683702442
Joseph Paige,0.0
Joseph Pettaway,0.0038684719535783366
Joseph Porter,0.0
Joseph Ramos,0.0016328434802892467
Joseph Rodriguez,0.0004278990158322636
Josh Peterson,0.0
Joshua Adams,0.0
Joshua Babb,0.0
Joshua Barre,0.0
Joshua Beal,0.004257907542579075
Joshua Beebee,0.0
Joshua Boyd,0.0
Joshua Brooks,0.0005443658138268917
Joshua Brown,0.002136752136752137
Joshua Crawford,0.0
Joshua Feast,0.020134228187919462
Joshua Harvey,0.0
Joshua Johnson,0.0024063251976624267
Joshua Jones,0.0026595744680851063
Joshua Lewis,0.0007499062617172854
Joshua Madison,0.0
Joshua Ruffin,0.007614213197969543
Joshua Williams,0.0463980463980464
Josiah Tate,0.0
Jourdan Wagner,0.0
Jovan Brice,0.0
Joyce Quaweay,0.0011474469305794606
Juan Jones,0.0
Juan Lawrence,0.0
Juan May,0.0
Juan Romero,0.006156552330694811
Juawan Otis,0.0
Julian Dawkins,0.0017199862401100791
Julias Reese,0.0
Julius Graves,0.0
Julius Johnson,0.000706880301602262
Julius Kehyei,0.0
Julius Larrance,0.0
Julius Tate,0.012471655328798186
Junior Mask,0.0
Junior Prosper,0.0
Justin Colvin,0.0
Justin Ford,0.0005392289026691831
Justin Griffin,0.0
Justin Plaza,0.0
Justin Proctor,0.0
Justin Reed,0.0
Justin Sipp,0.0005963029218843172
Justin Stackhouse,0.0
Justin Thompson,0.0031776294884016524
Justin Turner,0.0888030888030888
Justin Watson,0.0031587259805211897
Juston Landry,0.0
Justus Howell,0.0035955056179775282
Juvon Allen,0.0
Juvon Simon,0.0
Juvon Williams,0.0
Juwan Lumpkin,0.0
Kadeem Torres,0.0
Kadeem Trotter,0.0
Kaizen Crossen,0.0
Kajieme Powell,0.018344883815735832
Kajuan Raye,0.0024600246002460025
Kaldrick Donald,0.0
Kaleb Alexander,0.0
Kalief Browder,0.12349676225716928
Kalin Jackson,0.0
Kamaal Edwards,0.0
Kamal Flowers,0.0
Kamyn Bright,0.0
Kanisha Fuller,0.0
Karaka Walls,0.0
Kareem Jones,0.0
Karl Walker,0.0
Karlando Roberts,0.0
Karreem Ali,0.0
Karvis Gamble,0.0
Kashad Ashford,0.0
Kavonda Payton,0.0
Kawanza Beaty,0.0
Kawaski Trawick,0.010610079575596816
Kawme Patrick,0.0
Kayla Moore,0.015302727877578177
Kaylon Robinson,0.0
Ke'Sharn Burney,0.0
Ke'Shawn Stewart,0.0
Keaira Byrd,0.0
Keara Crowder,0.00042354934349851756
Keaton Otis,0.00074757039621231
Keenan Ardoin,0.0
Keenan Bradley,0.0
Keenan McCain,0.0
Keeven Robinson,0.0036596523330283625
Keian Jones,0.0
Keita O'Neil,0.0
Keith Atkinson,0.0
Keith Briscoe,0.0
Keith Bursey,0.0
Keith Carter,0.011308562197092083
Keith Childress,0.0015353121801432957
Keith Collins,0.004319654427645789
Keith Durham,0.0
Keith Latin,0.0
Keith McLeod,0.000974184120798831
Keith Montgomery,0.0
Keith Price,0.0
Keith Scott,0.01952662721893491
Keith Watkins,0.0
Keith Wilson,0.0
Kellen White,0.0
Kelley Forte,0.0
Kelly Brinson,0.0
Keltron Singleton,0.0
Kelvin Goldston,0.0
Kelvin Parks,0.0
Kelvin Shaw,0.0
Kelvin White,0.002109704641350211
Kemonte Cobbs,0.0
Kemp Yarborough,0.0005386479935362241
Kendall Alexander,0.0
Kendall Carroll,0.0
Kendall Walker,0.0
Kendar Rosario,0.0
Kendell Wilson,0.0
Kendole Joseph,0.0
Kendra Diggs,0.0
Kendre Alston,0.0
Kendrec McDade,0.007805463824677274
Kendrell Watkins,0.0
Kendrick Amest,0.0
Kendrick Brown,0.0004100041000410004
Kendrick Lloyd,0.0
Kendrick McDaniel,0.0
Kenji Danzy,0.0
Kenneth Ayton,0.0
Kenneth Bailey,0.0
Kenneth Bedgood,0.0
Kenneth Brown,0.0032808398950131233
Kenneth Chamberlain,0.00607463118310674
Kenneth Collins,0.0
Kenneth Cooper,0.0003473428273706148
Kenneth DeShields,0.0
Kenneth Dothard,0.0
Kenneth Francis,0.0
Kenneth Harding,0.0019536701088473346
Kenneth Herring,0.0014798372179060304
Kenneth Johnson,0.0
Kenneth Jones,0.029585798816568046
Kenneth Knight,0.0
Kenneth Lewis,0.0
Kenneth Muse,0.0
Kenneth Releford,0.0
Kenneth Robledo,0.0
Kenneth Ross,0.001917086029235562
Kenneth Sashington,0.0
Kenneth Simeus,0.0
Kenneth Smallwood,0.0
Kenneth Smith,0.001195814648729447
Kenneth Stafford,0.0
Kenneth Thomas,0.0
Kenneth Thompson,0.000709471443774388
Kenneth Williams,0.0351775956284153
Kenney Watkins,0.0005797101449275362
Kenny Montgomery,0.0
Kenny Walker,0.006872852233676976
Kentin Brooks,0.0
Kentorrey Sims,0.0
Kentreal Irving,0.0
Kentrey Witherspoon,0.0
Kentrill Carraway,0.0
Kenyado Newsuan,0.0
Kenyatta Moorehead,0.0
Kenyon Thomas,0.0
Kenzell Hobbs,0.0
Keo Crockett,0.0
Keontae Amerson,0.0
Keoshia Hill,0.0
Kerby Revelus,0.0
Kerry Blake,0.0
Kerry Bradley,0.0
Kerry Brown,0.001236603462489695
Kerry Wesson,0.0
Kershawn Geiger,0.0
Kerwin Harris,0.0
Keshaun Fleming,0.0
Keshawn Hargrove,0.0
Keshawn Wilson,0.0
Keston Lewis,0.0
Kevan Ruffin,0.0
Kevin Aldophe,0.0
Kevin Allen,0.0069124423963133645
Kevin Bailey,0.0003363605785401951
Kevin Bajoie,0.0
Kevin Beasley,0.0
Kevin Bolden,0.0
Kevin Brunson,0.0
Kevin Campbell,0.008731241473397
Kevin Capers,0.0
Kevin Carr,0.0
Kevin Davis,0.008297567954220314
Kevin Duncan,0.0
Kevin Forearm,0.0
Kevin Fox,0.0
Kevin Grissett,0.0
Kevin Hanson,0.0
Kevin Hicks,0.0
Kevin Higgenbotham,0.0
Kevin Hunter,0.003975535168195718
Kevin LaDay,0.0
Kevin Mason,0.0
Kevin Matthews,0.0010193679918450561
Kevin Peterson,0.12631578947368421
Kevin Robinson,0.0024702447788008085
Kevin Sturgis,0.0
Kevin Washington,0.0006397952655150352
Kevin White,0.06609401097590074
Kevin Willingham,0.0
Kevin Wooten,0.0
Keyjuantas Tims,0.0
Keyshon Parham,0.0
Khalid Bouaiti,0.0
Khalil Burton,0.0
Khalil Lawal,0.0008375209380234506
Khari Illidge,0.00033715441672285906
Khari Westly,0.0
Kiana Lamb,0.0
Kiarron Parker,0.0
Kiko Battle,0.0
Kimani Gray,0.012411942301241194
Kimani Johnson,0.0005367686527106817
Kimiki Truss,0.0
King Hoover,0.0
Kinzy Thornton,0.0
Kionte Spencer,0.0015814443858724301
Kirk Figueroa,0.001199040767386091
Kirklin Woolridge,0.0
Kisha Arrone,0.0
Kisha Michael,0.0005257623554153522
Kiwane Carrington,0.0004730368968779565
Kiwi Herring,0.00812407680945347
Kobe Dimock-Heisler,0.0
Korey Germaine,0.0
Korryn Gaines,0.05459770114942529
Kourtney Hahn,0.0
Kreen Bateman,0.0
Kris Jackson,0.0
Kristopher Haynes,0.0
Kuame Floyd,0.0
Kurt Reinhold,0.004424778761061947
Kwamaine O'Neal,0.0
Kwame Jones,0.0
Kwamena Ocran,0.0
Kwesi Ashun,0.0035714285714285713
Ky Johnson,0.0
Kyam Livingston,0.0021082220660576245
Kylan Laurent,0.0
Kylen English,0.0
Kyree Johnson,0.0
Kyron Sands,0.0
La Smith,0.0
La-Reko Williams,0.0
LaFayette Evans,0.0
LaRonda Sweatt,0.0
LaSean Rinehardt,0.0
LaShanda Anderson,0.0009407337723424271
Labaran Idakoji,0.0
Ladarius Jackson,0.0
Lajuana Phillips,0.0
Lakeith Roland,0.0
Lamar Harris,0.0005319148936170213
Lamar Moore,0.0
Lamar Richardson,0.002955665024630542
Lamon Haslip,0.0
Lamont Burgess,0.0
Lamont Gulley,0.0
Lamont Harmon,0.0
Lamont Perry,0.0
Lamontez Jones,0.0
Lana Morris,0.0
Lance Dawkins,0.0
Lance Smith,0.0
Landon Nobles,0.0
Landris Hawkins,0.0
Laniya Miller,0.0005367686527106817
Laquan McDonald,0.13508992053534086
Laroy Brown,0.0
Larry Adams,0.0
Larry Boyd,0.0
Larry Hawkins,0.0
Larry Hooker,0.0
Larry Jackson,0.005629838142153413
Larry Jenkins,0.0
Larry Johnson,0.0701394585726005
Larry Matthews,0.0
Larry Pettiford,0.0
Larry Redick,0.0
Larry Reed,0.0006672597864768683
Larry Taylor,0.0
Larry Thomas,0.0008099352051835853
Larry Wall,0.007369196757553427
Lashano Gilbert,0.0004154549231408392
Latare Nixon,0.0
Latasha Walton,0.0
Laudemer Arboleda,0.0
Lavall Hall,0.0017597888253409592
Lavante Biggs,0.0
Lavar Douglas,0.0
Lavon King,0.00039856516540454366
Lavon Peete,0.0
Lawrence Campbell,0.0
Lawrence Faine,0.0
Lawrence Graham,0.0006830601092896175
Lawrence Green,0.0
Lawrence Hawkins,0.0
Lawrence Heyward,0.0
Lawrence Jones,0.013438504236050247
Lawrence Kelly,0.0
Lawrence McCoy,0.0
Lawrence Thompson,0.0
Lawrence Wallace,0.0
Lazzeri Frazier,0.0
LeBron Bronson,0.0
Lebarron Ballard,0.0
Lebron Warren,0.0
Ledarius Williams,0.000437636761487965
Ledarren Mixon,0.0
Lee Bonner,0.0
Lee Jefferson,0.0
Lee Redoux,0.0
Lee Thomas,0.004900459418070444
Leigh Weeden,0.0
Lejoy Grissom,0.0
Lemuel Bunn,0.0
Lennard Whittle,0.0
Lenny Ellis,0.0
Lenon Henry,0.0
Leo Brooks,0.0
Leo Craig,0.0
Leon Alfred,0.0
Leon Brackens,0.0
Leon James,0.0013616557734204794
Leon McCoy,0.0002628811777076761
Leonard Anderson,0.0007112375533428165
Leonard Bradley,0.0
Leonard Egland,0.0
Leonard Glover,0.0
Leonard Parker,0.0
Leonard Shand,0.0
Leonard Thomas,0.001376936316695353
Leonardo Little,0.0
Leroy Barnes,0.0
Leroy Brockington,0.0
Leroy Brown,0.004666666666666667
Leroy Browning,0.0005089058524173028
Leroy Freeman,0.0
Leroy Jackson,0.0
Leroy Turner,0.0
Leslie Portis,0.0
Leslie Sapp,0.0
Letha Adams,0.0
Leu Freycinet,0.0
Levester Taylor,0.0
Levi Boynton,0.0
Levon Love,0.0
Levonia Riggins,0.0
Lew Tyree,0.0
Lewis Baker,0.04040404040404041
Lewis Ruffin,0.0
Lewis Williams,0.0
Lilly Turner,0.0
Lincoln Price,0.0
Linda Davis,0.0
Linda Hicks,0.0
Lindani Myeni,0.0
Linel Lormeus,0.0
Linus Phillip,0.0
Linwood Lambert,0.0010256410256410256
Lionel Gibson,0.000547645125958379
Lionel Gilmore,0.0
Lionel Waters,0.0
Lionel Young,0.0013704888076747374
Logan Bell,0.0
Lola Moore,0.0
Londrell Johnson,0.0
Lonnie Bowen,0.0
Lonnie Flemming,0.0
Lonnie Mostiller,0.0
Lonnie Newton,0.0
Lonnie Punch,0.0
Lonnie Smith,0.0008539709649871904
Lonnie Taylor,0.0
Lorenzo Cruz,0.0
Lorenzo Davis,0.0015479876160990713
Lorenzo Hayes,0.0
Lorenzo Jones,0.0
Lorez Chambers,0.0
Louis Atkinson,0.0
Louis Guidry,0.0
Louis Kimbro,0.0
Louis Squires,0.0
Louis Veal,0.0
Louvenia Penwright,0.0
Lovelle Mixon,0.0009029345372460496
Lucius Washington,0.0
Luis Cruz,0.0009775171065493646
Luke Stewart,0.0
Luke Swann,0.0
Luqman Thomas,0.0
Luther Brown,0.0
Luther Hudson,0.0
Luther Walker,0.0
Luvelle Kennon,0.0
Lymond Moses,0.0
Lyndarious Witherspoon,0.0
Lynell Hawkins,0.0
Lynn Kimbrough,0.0
Lynn Weatherspoon,0.0
Ma'Khia Bryant,0.0
Mack Long,0.0
Mahlon Summerour,0.0
Malcolm Comeaux,0.0
Malcolm Gracia,0.0
Malcolm Hickson,0.0
Malcolm Johnson,0.0
Malcolm Shaw,0.0
Malcolm Smith,0.02252391237272447
Malcolm Williams,0.002680965147453083
Malik Canty,0.0
Malik Carey,0.0
Malik Gresham,0.0
Malik Williams,0.005529685681024447
Malissa Williams,0.006491398896462187
Malvin Conley,0.0
Mansur Ball-Bey,0.004310344827586207
Mantry Norris,0.0
Manuel DaVeiga,0.0
Manuel Ellis,0.04883720930232558
Manuel Loggins,0.0008891523414344991
Manuel Ocampo,0.0
Marc Davis,0.03554006968641115
Marc Neal,0.0
Marcellis Stinnette,0.04522613065326633
Marcellus Burley,0.0
Marcellus Perry,0.0
Marcellus Toney,0.0
Marco Loud,0.0
Marcos Perea,0.0
Marcus Bell,0.0
Marcus Boles,0.0
Marcus Brown,0.0019130910084722602
Marcus Epps,0.007792207792207792
Marcus Garner,0.0
Marcus Golden,0.0026030368763557484
Marcus Hayden,0.0
Marcus Heard,0.0
Marcus Lemons,0.0
Marcus McVae,0.0
Marcus Meridy,0.0
Marcus Moore,0.0022598870056497176
Marcus Neal,0.0
Marcus Neloms,0.0
Marcus Patterson,0.0
Marcus Robinson,0.0013245033112582781
Marcus Rogers,0.0002577319587628866
Marcus Slade,0.0
Marcus Smith,0.024010976446375485
Marcus White,0.0
Marcus Young,0.001445086705202312
Marcus-David Peters,0.018365472910927456
Marese Collins,0.0
Mario Bass,0.0
Mario Benjamin,0.0
Mario Christian-Day,0.0
Mario Clark,0.0024600246002460025
Mario Evans,0.0
Mario Hobson,0.0
Mario Johnson,0.0
Mario Jordan,0.0
Mario Romero,0.0006311139160618492
Mario Woods,0.018658598083711547
Mark Adkins,0.0006906077348066298
Mark Barmore,0.0
Mark Bender,0.0
Mark Blakely,0.0
Mark Blocker,0.0
Mark Brewer,0.0
Mark Daniels,0.0
Mark Ford,0.0008010680907877169
Mark Guirguis,0.0
Mark Harvey,0.002004008016032064
Mark Henderson,0.002207505518763797
Mark Hicks,0.0
Mark McMullen,0.0
Mark Salazar,0.0006080875646093037
Mark Sheppard,0.0055658627087198514
Markell Atkins,0.0
Markell Bivins,0.0
Markeyvion Cannon,0.0
Markquett Martin,0.0
Markus Clark,0.0
Marland Anderson,0.0
Marlin Mack,0.0
Marlon Dixon,0.0
Marlon Grant,0.0
Marlon Horton,0.0
Marlon Lewis,0.0
Marlon Sanders,0.0006768953068592057
Marlon Smith,0.0
Marlon Woodstock,0.0
Marquavious Parks,0.0
Marqueese Alston,0.0018867924528301887
Marques Burnett,0.0
Marquesha McMillan,0.0
Marquez Smart,0.0
Marquez Warren,0.0
Marquin Hendrix,0.0
Marquintan Sandlin,0.0005257623554153522
Marquinton Brooks,0.0
Marquis Golden,0.0
Marquis Jones,0.0
Marquis Spencer,0.0
Marquis Thomas,0.0006369426751592356
Marquis Tousant,0.0029411764705882353
Marquis Weems,0.0
Marquise Jones,0.0030476190476190477
Marquise Sampson,0.0
Marquize Martin,0.0
Marshall Franklin,0.0
Marshall Tobin,0.0
Martez Storey-Webb,0.0
Martez Webb,0.0
Martice Milliner,0.0
Martin Duckworth,0.0
Martin Flenaugh,0.0
Martin Ryans,0.0
Martina Brown,0.0
Marty Maiden,0.0
Marvin Alexander,0.0002699055330634278
Marvin Booker,0.0
Marvin Coleman,0.0006472491909385113
Marvin Finklea,0.0
Marvin Fulford,0.0
Marvin Green,0.0
Marvin McMillian,0.0
Marvin Pognon,0.0
Marvin Veiga,0.0
Marvin Washington,0.003209242618741977
Marvon Payton,0.0
Marzues Scott,0.0
Matthew Abrams,0.0
Matthew Ajibade,0.0073370738023306
Matthew Beckett,0.0
Matthew Blaylock,0.0
Matthew Burroughs,0.0
Matthew Chambers,0.0
Matthew Felix,0.0
Matthew Henderson,0.002484472049689441
Matthew Joseph,0.0047345282380791345
Matthew Oxendine,0.0
Matthew Swiney,0.0
Matthew Tucker,0.0005467468562055768
Matthew Williams,0.0
Matthew Wood,0.00322061191626409
Matthias Mayhorn,0.0
Maurell McClendon,0.0
Maurice Brown,0.00546448087431694
Maurice Gordon,0.054441260744985676
Maurice Granton,0.0028142589118198874
Maurice Hampton,0.0025006946373992774
Maurice Holley,0.0
Maurice Ifill,0.0
Maurice Jackson,0.0
Maurice Johnson,0.0003053435114503817
Maurice Parker,0.0
Maurice Shavers,0.0
Maurice Shephard,0.0
Max Gracia,0.0009519276534983341
Maximo Rabasa,0.0
Mayceo Devangari,0.0
McHale Rose,0.005479452054794521
Meagan Hockaday,0.002688172043010753
Medger Blake,0.0
Melvin Bledsoe,0.0
Melvin Bouler,0.0
Melvin Fletcher,0.0
Melvin Lawhorn,0.0
Melvin Williams,0.0007479431563201197
Mi'Chance Dunlap-Gittens,0.000641025641025641
Micah Johnson,0.02379603399433428
Micah Key,0.0
Micduff Robinson,0.0
Michael Abney,0.0
Michael Austin,0.0
Michael Bailey,0.0018099547511312218
Michael Benit,0.0
Michael Blair,0.00036483035388544326
Michael Bonty,0.0
Michael Brisco,0.0
Michael Brown,0.3337393422655298
Michael Charles,0.0013550135501355014
Michael Chesney,0.0
Michael Daniel,0.007241606319947334
Michael Dean,0.007662835249042145
Michael Dozer,0.0
Michael Elam,0.004932182490752158
Michael Epps,0.0005824111822947001
Michael Evans,0.0039503386004514675
Michael Felder,0.0
Michael Ford,0.009441183975503956
Michael Gilyard,0.0
Michael Griffin,0.009373571101966164
Michael Hansford,0.0
Michael Harris,0.01568951279933939
Michael Hughes,0.0
Michael Jacobs,0.009995456610631531
Michael Jenkins,0.008384572386808273
Michael John,0.006956521739130435
Michael Joyner,0.0
Michael King,0.0072992700729927005
Michael Laney,0.004333023831631074
Michael Lee,0.024444444444444446
Michael Lembhard,0.0002986857825567503
Michael Lollis,0.0
Michael McBride,0.0020771513353115725
Michael McClure,0.0
Michael McCullen,0.0
Michael McDougle,0.0
Michael McKnight,0.0
Michael Minick,0.0
Michael Minor,0.0
Michael Nichols,0.006979449398991857
Michael Noel,0.0015274949083503055
Michael Nunn,0.0005201560468140442
Michael Perryman,0.0
Michael Reams,0.0
Michael Rivera,0.002127659574468085
Michael Roberson,0.0005442176870748299
Michael Sago,0.0
Michael Smith,0.10076157000585823
Michael Sulton,0.0
Michael Taylor,0.010428736964078795
Michael Thompson,0.040983606557377046
Michael Tuck,0.0
Michael Walcott,0.0
Michael Ward,0.005722460658082976
Michael Westley,0.0
Michael Willis,0.0008254230293025176
Michael Wilson,0.01098546042003231
Michael Wright,0.016304347826086956
Michael Wudtee,0.0
Michelle Cusseaux,0.020748576078112285
Michelle Shirley,0.0
Miciah Lee,0.0020491803278688526
Mickee McArthur,0.0
Miguel Benton,0.0
Miguel Espinal,0.0
Miguel Richards,0.0
Miguel Russo,0.0
Mikel McIntyre,0.0
Mikyas Tegegne,0.0
Miles Hall,0.00425531914893617
Miles Jackson,0.0
Millard Griffin,0.0
Miloni Metoyer,0.0
Milton Hall,0.0027846534653465345
Miriam Carey,0.03353768481788676
Mister Lowe,0.0
Mitchell Clair,0.0
Mitchell Kitchen,0.0
Modesto Reyes,0.008695652173913044
Mohamed Al-Hashemi,0.0
Mohamed Bah,0.0006357279084551812
Mohamed Barry,0.0031380753138075313
Mohamed Ibrahim,0.010144927536231883
Mohamed Zaine,0.0
Mohammad Doudzai,0.0
Mohammad Moghaddam,0.0016778523489932886
Mohammed Shah,0.0006377551020408163
Momodou Sisay,0.0
Monique Deckard,0.0004440497335701599
Monroe Isadore,0.0007145409074669524
Monta Fizer,0.0
Montae Shackleford,0.0
Montalito McKissick,0.0
Montay Penning,0.0
Monte Evans,0.00023640661938534278
Montez Hambric,0.0
Montrell Moss,0.0
Montrez Virgil,0.0
Morgan Mumford,0.0
Morgan Rankins,0.0
Moses Ruben,0.0
Moshowon Leach,0.0
Muhammad Muhaymin,0.008207070707070708
Murbarak Soulemane,0.0
Murray Asberry,0.0
Mya Hall,0.02197309417040359
Mycael Johnson,0.0
Mycol French,0.0
Myles Frazier,0.008379888268156424
Myron Flowers,0.0
Myron May,0.000847457627118644
Myron Pollard,0.0
Naaman Pierce,0.0
Naeschylus Carter-Vinzant,0.0
Nahcream Moore,0.0
Naim Owens,0.0
Najier Salaam,0.0
Nana Adomako,0.0
Naquan Johnson,0.0
Nasheem Prioleau,0.0
Natasha McKenna,0.018859649122807017
Nathan Hamilton,0.0
Nathaniel Edwards,0.0
Nathaniel Holland,0.001184834123222749
Nathaniel McCoy,0.0
Nathaniel McRae,0.0
Nathaniel Pickett,0.0
Nathaniel Pinnock,0.0
Nathaniel Pruitt,0.0
Nathaniel Richmond,0.0007380073800738007
Nathaniel Rowe,0.0
Nathaniel Sanders,0.0006850879196163508
Nathaniel Sassafras,0.0
Nathaniel Wilks,0.0
Nehemiah Dillard,0.0005970149253731343
Neico Crooks,0.0
Nekiylo Graves,0.0
Nelson Hyman,0.0
Nelson Reeves,0.0
Nephi Arriguin,0.0
Nicholas Glenn,0.0011806375442739079
Nicholas Robertson,0.0020273694880892043
Nicholas Scott,0.0
Nicholas Thomas,0.0026833631484794273
Nicholas Underwood,0.0
Nicholas Walker,0.0
Nicholous Weeks,0.0
Nijza Hagans,0.0
Nika Holbert,0.0
Niko Husband,0.0
Nina Adams,0.0
Noah Green,0.0
Noah Johnson,0.0
Noel Russell,0.0
Nolan Anderson,0.0
Nolton LaFleur,0.0
Norman Cooper,0.0009049773755656109
Norman Fuller,0.0
Norman Gary,0.0
Normane Bennett,0.0
Norris Duffy,0.0
Nyarko Johnson,0.0
Nyl Oday,0.0
Nyocomus Garnett,0.0
O'Patrick Humphrey,0.0
O'Shaine Evans,0.0
O'Tavis Hall,0.0
Obataiye Edwards,0.0
Obbie Shepard,0.0
Oddis Colvin,0.0
Odell Brown,0.0
Odell Davis,0.0
Ojay Cummings,0.0
Okie Lutcher,0.0
Olain Jefferson,0.0
Olajuwon Murphy,0.0
Oliver Gregoire,0.0
Ollie Brooks,0.0
Olugbalah Ridley,0.0
Oluwatofunmi Kaiyewu,0.0
Oluwatoyin Salau,0.19402985074626866
Omar Adams,0.0
Omar Edwards,0.0009170105456212746
Omar Stevens,0.0
Omari Thompson,0.0
Omarr Jackson,0.0
Omarri Williams,0.0012634238787113076
Omer Ali,0.0
Onaje Dickinson,0.0
Ondrae Hutchinson,0.0
Ontario Billups,0.0
Oral Nunis,0.0
Oran Douglas,0.0
Orande Hayes,0.0
Orville Edwards,0.0
Osaze Osagie,0.006418485237483954
Osbourne Broadie,0.0
Oscar Cain,0.0078125
Oscar Grant,0.1175426923929918
Osee Calix,0.0
Oshae Terry,0.0
Osman Abdullahi,0.0
Otha Green,0.0
Otis Roberson,0.0
Paige Spencer,0.0
Pamela Turner,0.08551724137931034
Paris Turner,0.0
Parise Mercer,0.0
Parish Powell,0.0
Parnell Smith,0.0
Patches Holmes,0.0
Paterson Brown,0.0
Patricia Spivey,0.0
Patrick Bryant,0.0
Patrick Gatson,0.0
Patrick Harmon,0.006603081438004402
Patrick Kimmons,0.028421052631578948
Patrick Liddell,0.0
Patrick Reed,0.012269938650306749
Patrick Small,0.0
Patrick Spurlock,0.0
Patrick Starks,0.0
Patrick Sullivan,0.0010634526763559022
Patrick Warren,0.06837606837606838
Paul Bolden,0.0
Paul Braswell,0.0
Paul Daniels,0.006128702757916241
Paul Gaston,0.0
Paul Kemp,0.0007980845969672786
Paul MeBane,0.0
Paul O'Neal,0.007454128440366973
Paul Spencer,0.0005733944954128441
Pearce Cosey,0.0
Pearlie Golden,0.002736512900703675
Pedro Gonzalez,0.0005534034311012728
Percy Holland,0.0
Perry Long,0.0
Perry Webb,0.0
Peter Fanfan,0.0
Peter Gaines,0.0
Peter John,0.013007284079084287
Peter Jourdan,0.0
Peter Manuel,0.0
Peter Williams,0.0035671819262782403
Philando Castile,0.3539071347678369
Philip Hasan,0.0
Phillip Brown,0.0002935995302407516
Phillip Coleman,0.0
Phillip Johnson,0.0
Phillip Moore,0.0
Phillip Pitts,0.0
Phillip Sewer,0.0
Phillip Thomas,0.0
Phillip Ware,0.0
Phillip Watkins,0.0
Phillip White,0.004486316733961417
Phillipe Louis,0.0
Pier Shelton,0.0
Pierre Abernathy,0.0
Pierre Cherfrere,0.0
Pierre Loury,0.0032397408207343412
Pierre Woods,0.0
Pierree Davis,0.0
Portia Southern,0.0
Preston Thornton,0.0
Prince Akbar,0.0
Prince Gavin,0.000630715862503942
Prince James,0.008982996470965673
Pyon Simmons,0.0
Qavon Webb,0.0
Qawi Muhammad,0.0
Quamaine Mason,0.0
QuanDavier Hicks,0.0
Quanice Hayes,0.02131782945736434
Quanta Chandler,0.0
Quencezola Splunge,0.0
Quency Floyd,0.0
Quendarrius Cummings,0.0
Quentin Broadus,0.0
Quentin Green,0.0
Quentin Hicks,0.0
Quentin Smith,0.0008605851979345956
Quincy Williams,0.0024271844660194173
Quintas Harris,0.0
Quintavia Wade,0.0
Quintec Locke,0.0007112375533428165
Quintico Goolsby,0.0
Quintine Barksdale,0.0
Quintis Pratt,0.0
Quintonio LeGrier,0.013782542113323124
Quron Williams,0.0
Qusean Whitten,0.0
RT McGinty,0.0
Raason Shaw,0.0
Raheem Reeder,0.0
Raheen Alleyne,0.0
Raheim Brown,0.0007982969664715274
Rajsaun McCray,0.0
Rakeem Bentley,0.0
Rakeem Nance,0.0
Rakeen Davis,0.0
Ralphael Briscoe,0.0
Ramarley Graham,0.019515079834417505
Ramel Wright,0.0
Randall Hill,0.0
Randall Wilcox,0.0
Randolph McClain,0.0
Randolph Ward,0.0
Randulph Rodas,0.0
Randy Collins,0.0
Randy Green,0.0
Randy Lewis,0.011235955056179775
Randy Miller,0.0
Randy Nelson,0.0
Randy Smith,0.00250501002004008
Rannita Williams,0.0
Raphael Bostick,0.0
Rashaad Brookins,0.0
Rashaan Gilbert,0.0
Rashad Bugg-Bey,0.0
Rashad Cunningham,0.0
Rashad Hopes,0.0
Rashad Madden,0.0
Rashad Opher,0.0
Rashad Wells,0.0006891798759476223
Rashard Alford,0.0
Rashaun Lloyd,0.0
Rashaun Washington,0.0029182879377431907
Rashawn Johnson,0.0
Rasheed Cherry,0.0
Rasheed Moorman,0.0
Rasheem Rose,0.0
Rasheem Singletary,0.0
Rasheem Wright,0.0
Rasheik Calhoun,0.0
Rashid Jones,0.0
Raupheal Thomas,0.0
Ray Glass,0.00028121484814398203
Ray Hayes,0.0
Ray Mitchell,0.0
Raymon Truitt,0.0
Raymond Allen,0.0005957700327673518
Raymond Bishop,0.0
Raymond Brown,0.0
Raymond Davis,0.0109375
Raymond Herisse,0.0
Raymond Hodge,0.0
Raymond Ice,0.0
Raymond Johnson,0.0
Raymond Smith,0.0003059975520195838
Raymond Williams,0.0
Raymone Davis,0.0
Raynard Burton,0.0
Raynard Davis,0.0
Rayshard Brooks,0.270516717325228
Rayshard Scales,0.0
Rayshaun Cole,0.0
Rayshawn Brown,0.0
Rayshune Henry,0.0
Recardio Clark,0.0
Redel Jones,0.0009546539379474941
Redrick Batiste,0.0
Reggie Preston,0.0
Reginald Alexander,0.0
Reginald Boston,0.0
Reginald Bursey,0.0
Reginald Dogan,0.0
Reginald Doucet,0.0015932023366967605
Reginald Epps,0.0
Reginald Hardaman,0.0
Reginald Johnson,0.0
Reginald Jones,0.0
Reginald Linthicum,0.0
Reginald Marshall,0.002863961813842482
Reginald McCullough,0.0
Reginald Moore,0.00046739892498247256
Reginald Owens,0.0
Reginald Smith,0.0
Reginald Thomas,0.0017857142857142857
Reginald Wallace,0.0004909180166912126
Reginald Williams,0.00036075036075036075
Rehyen Bost-McMurray,0.0
Rekia Boyd,0.0593881223755249
Remis Andrews,0.0
Renard Daniels,0.0
Renardo Brownlee,0.0
Reno Owens,0.0
Reno Sayles,0.0
Reshird Lyles,0.0
Reuben Hollis,0.0
Rexford Dasrath,0.0
Reynaldo Cuevas,0.0006321112515802782
Ricardo Giddings,0.0
Ricardo Hylton,0.0
Richard Bard,0.0
Richard Blount,0.0
Richard Davis,0.0030422878004259203
Richard Grimes,0.0
Richard Haston,0.0
Richard Johnson,0.002290950744558992
Richard Linyard,0.0
Richard Longstreet,0.0
Richard Lyons,0.0007077140835102619
Richard McKenzie,0.0
Richard Nolton,0.0
Richard Nordstrom,0.0
Richard Perkins,0.001
Richard Price,0.0
Richard Risher,0.0
Richard Sims,0.0
Richard Summers,0.0
Richard Towler,0.0
Rickey McFadden,0.0
Rickey Rozelle,0.0
Rickey Walker,0.0
Rickie Starks,0.0
Ricky Ard,0.0
Ricky Ball,0.001477832512315271
Ricky Boyd,0.0025
Ricky Childs,0.0
Ricky Eison,0.0
Ricky Toney,0.0
Ricky Washington,0.0
Rico Crosby,0.0
Rico Johnson,0.0005420054200542005
Rico Rice,0.0
Riley Peay,0.0016025641025641025
Rio Thomas,0.0
Ritchie Harbison,0.0
Robert Barger,0.0
Robert Bassie,0.0
Robert Berger,0.0
Robert Brown,0.017279411764705883
Robert Chambers,0.0010649627263045794
Robert Coleman,0.0
Robert Dentmond,0.0
Robert Desir,0.0
Robert Faulkner,0.0
Robert Fuller,0.07854984894259819
Robert Gary,0.0003289473684210526
Robert Hampton,0.0008421052631578948
Robert Harris,0.0031645569620253164
Robert Henderson,0.002041411490230388
Robert Hollie,0.0
Robert Howard,0.003246753246753247
Robert Jackson,0.012096774193548387
Robert Jones,0.014677481653147934
Robert Knox,0.001017293997965412
Robert Loggins,0.0
Robert Lusk,0.0
Robert Lyons,0.0
Robert Malone,0.0
Robert McFarlin,0.0
Robert Mitchell,0.011337868480725623
Robert Montgomery,0.00510204081632653
Robert Powell,0.0075445816186556925
Robert Storay,0.0
Robert Thompson,0.006591337099811676
Robert Washington,0.002244165170556553
Robert Young,0.00423728813559322
Robin Howard,0.0
Robin White,0.0
Roderick Anderson,0.0
Roderick Burr,0.0
Roderick Hamilton,0.0
Roderick Inge,0.0
Roderick McDaniel,0.0
Roderick Taylor,0.0
Roderick Thomas,0.0
Roderick Valentine,0.0
Roderick Wilson,0.0
Rodnell Cotton,0.0
Rodney Applewhite,0.011834319526627219
Rodney Barnes,0.0
Rodney Biggs,0.0
Rodney Boddie,0.0
Rodney Brown,0.0013227513227513227
Rodney Cole,0.0
Rodney Edwards,0.0
Rodney Eubanks,0.0
Rodney Freeman,0.0
Rodney Green,0.0
Rodney Hamilton,0.0
Rodney Harris,0.0
Rodney Henderson,0.0
Rodney Hess,0.0
Rodney Hodge,0.0
Rodney Hunter,0.0
Rodney Jacobs,0.0
Rodney King,0.13351075626524728
Rodney Lassiter,0.0
Rodney Mitchell,0.0
Rodney Moore,0.0
Rodney Russell,0.0
Rodney Smith,0.05
Rodney Terry,0.001668335001668335
Rodney Toler,0.0
Rodney Turner,0.0
Rodney Walker,0.0
Rodney Watts,0.0
Rodney Wright,0.0003076923076923077
Rodriguez Pam,0.0
Roger Allen,0.0
Roger Anthony,0.0
Roger Hipskind,0.0
Roger James,0.0009643201542912247
Roger Tatum,0.0
Roger Williams,0.03254437869822485
Roland Campbell,0.0
Rolly Thomas,0.0
Roman Drake,0.0
Romell Hill,0.0
Romello Barnes,0.0
Romello Palmer,0.0
Romir Talley,0.00199203187250996
Ronald Chester,0.0
Ronald Clinton,0.0
Ronald Cox,0.0
Ronald Greene,0.008241758241758242
Ronald Johnson,0.003334722801167153
Ronald McCrary,0.0
Ronald Newsome,0.0
Ronald Palmer,0.0
Ronald Richardson,0.0
Ronald Roland,0.0
Ronald Royal,0.0
Ronald Singletary,0.0
Ronald Singleton,0.0
Ronald Sneed,0.0
Ronald Williams,0.004378762999452655
Ronald Wood,0.0
Ronald Wright,0.00031426775612822125
Rondell Goppy,0.0
Rondre Hornbeak,0.0
Ronell Foster,0.0016963528413910093
Ronell Wade,0.0
Ronnel Mouzon,0.0
Ronnie Bobo,0.0
Ronnie Carr,0.0
Ronnie Churches,0.0
Ronnie Davis,0.0005517241379310345
Ronnie Hill,0.0019267822736030828
Ronnie McNary,0.0
Ronnie Pittman,0.0
Ronnie Shorter,0.0
Roosevelt Brown,0.0
Roosevelt Toson,0.0
Rory McKenzie,0.0
Rosette Samuel,0.0
Ross Anthony,0.0
Roudy Hendricks,0.0
Roy Glenn,0.0004487323311644604
Roy Joiner,0.0
Roy McAllister,0.0
Roy Nelson,0.014242115971515769
Roy Richards,0.0
Roy Scott,0.0
Royce Flournoy,0.0
Roydell Kennedy,0.0
Roylee Dixon,0.0
Ruben Houston,0.0
Ruben Randolph,0.0
Ruben Smith,0.0
Rudolph Bell,0.0
Rudolph Byrd,0.0002239140170174653
Rudolph Wyatt,0.0
Rudy Eugene,0.0003059975520195838
Rueben Ruffin,0.0
Rufus Baker,0.0
Rumain Brisbon,0.006388415672913117
Rumondale Jones,0.0
Russell Donahue,0.0
Russell Smith,0.0013477088948787063
Rustin Wilkerson,0.0
Rusty Edwards,0.0
Ryan Clayton,0.0061214495592556315
Ryan Davis,0.02074688796680498
Ryan Joseph,0.0018738288569643974
Ryan Koontz,0.0
Ryan Martin,0.0054890219560878245
Ryan Simms,0.0
Ryan Smith,0.0273972602739726
Ryan Spears,0.0
Ryan Stokes,0.001056338028169014
Ryan Toussaint,0.0
Ryan Twyman,0.034236804564907276
Sabin Jones,0.0
Sadiq Idris,0.0
Sadiq Ismail,0.0
Sage Happ-Williams,0.0
Saheed Vassell,0.010628875110717449
Sahlah Ridgeway,0.0
Sahleem Tindle,0.000819672131147541
Said Joquin,0.0026954177897574125
Sakhar Robinson,0.0
Salaythis Melvin,0.04395604395604396
Salisbury-Ja'Quan Griffin,0.0
Sam Alexie,0.0
Sam Holmes,0.00045641259698767686
Samir Nicholson,0.0
Sammie Davis,0.0016345210853220007
Sammie Richardson,0.0
Sammie Wallace,0.0
Samson Fleurant,0.0
Samuel Birch,0.0
Samuel Cosby,0.0
Samuel Cunningham,0.0
Samuel DuBose,0.012269938650306749
Samuel Dunn,0.0
Samuel Frazier,0.0
Samuel Freeman,0.0
Samuel Galberth,0.0
Samuel Mallard,0.0
Samuel Morris,0.0
Samuel Rivers,0.0
SanJuan Thomas,0.0
Sanchez Lowe,0.0
Sandra Barnett,0.0
Sandra Bland,0.37223529411764705
Sandy McCall,0.0
Sarah Riggins,0.0
Sarge Junior,0.0
Sasha Tarvin,0.0
Sawandi Toussaint,0.0017452006980802793
Schaston Hodge,0.0
Schwann Herbert,0.0
Scott Bennett,0.002663825253063399
Scott Mayfield,0.0022189349112426036
Sean Bell,0.049013084941228656
Sean Bentley,0.0
Sean Brown,0.007468879668049793
Sean Egana,0.0
Sean Gamble,0.00026518164942985947
Sean Harris,0.0062911066628538745
Sean Ogle,0.0
Sean Rambert,0.005988023952095809
Sean Sharpe,0.0
Sebastien Montez,0.0
Sekai Southern,0.0
Seleucus Polk,0.0
Selwyn Hall,0.0
Selwyn Heath,0.0
Seon Rose,0.0
Sershawn Dillon,0.0
Seth Thompson,0.0
Seyoum Samuels,0.0
Shaaliver Douse,0.0
Shady Bell,0.0
Shaharah Coggins,0.0
Shaiheem Garvin,0.0
Shalamar Longer,0.0
Shalun Smith,0.0
Shalwan Leshore,0.0
Shamar Ogman,0.0
Shameka Dantzler,0.0
Shamikle Jackson,0.0
Shamir Palmer,0.0
Shamir Terry,0.0
Shane Jones,0.0
Shane Whitehead,0.0
Shante Alford,0.0
Shantel Davis,0.007386888273314866
Shantisha Dortch,0.0
Shaon Warner,0.0
Shaquian Johnson,0.0
Shaquille Barrow,0.0
Shaquille Kelly,0.0
Shaquille Rogers,0.0
Shaqur McNair,0.0
Shareef Allman,0.0005711022272986865
Shari Cartmell,0.0
Sharmel Edwards,0.0006055101422948834
Sharon McDowell,0.0
Sharrell Brown,0.0
Shatelle Hooks,0.0
Shaun Fuhr,0.005361930294906166
Shawan Allen,0.0
Shawn Braddy,0.0
Shawn Brown,0.0
Shawn Cannady,0.0
Shawn Dean,0.0
Shawn Greenwood,0.0
Shawn Mondragon,0.0
Shawn Payne,0.0
Shawn Rieves,0.0
Shawn Stevens,0.0
Shayne Lyons,0.0
Shelby Gazaway,0.0
Sheldon Francis,0.0
Shelly Frey,0.004554326610279766
Shelly Porter,0.0
Shem Lee,0.0
Shem Walker,0.0009263547938860583
Sherddrick Carter,0.0
Shereese Francis,0.0029940119760479044
Sherida Davis,0.0
Sherman Evans,0.0
Sherman Peacock,0.0
Sherman Threets,0.0
Shermichael Ezeff,0.0
Sheron Jackson,0.0
Sherron Norman,0.0
Shiquan Krouser,0.0
Shirley South,0.0
Shukri Said,0.0036199095022624436
Shyheed Boyd,0.0
Sidney Richardson,0.0
Sidney Washington,0.0
Silas Carpenter,0.0
Sincere Pierce,0.045714285714285714
Skylar Williams,0.007352941176470588
Skyler Stewart,0.0
Skyleur Young,0.0
Solomon Agwomoh,0.0
Solomon Picart,0.0
Somourian Wingo,0.0
Sontosh Clarke,0.0
Spencer McCain,0.0004666355576294914
Spurgeon Daniels,0.0
Stacey Paris,0.0
Stacey Wright,0.0
Stacy Golston,0.0
Stanley Cochran,0.0
Stanley Gibson,0.00029120559114735004
Stanley Grant,0.0
Stanley Jackson,0.0007666751852798365
Stanley Sparks,0.0
Starling Javier,0.0
Steiney Richards,0.0
Stephen Banford,0.0
Stephen Bullock,0.0
Stephen Caldwell,0.0
Stephen Gayle,0.0
Stephen Gillard,0.0
Stephen Moseley,0.0
Stephen Murray,0.0
Stephen Wattley,0.0
Stephon Averyhart,0.0
Stephon Clark,0.15008726003490402
Stephon Watts,0.0008867868755542418
Sterling Higgins,0.0
Steve Dormil,0.0
Steve Gilbert,0.0
Steve Washington,0.0004918839153959665
Steven Askew,0.0
Steven Barrier,0.0
Steven Brooks,0.0008920606601248885
Steven Byrdo,0.0
Steven Day,0.0
Steven Derifield,0.0
Steven Douglas,0.0
Steven Gadsden,0.0
Steven Goins,0.0
Steven Haizlip,0.0
Steven Hayes,0.0011101859561476548
Steven Isby,0.0
Steven Mallory,0.0
Steven McCrae,0.0
Steven Taylor,0.028645833333333332
Steven Thompson,0.00435126582278481
Steven Valenzuela,0.000651890482398957
Steven Vierra,0.0
Steven Watson,0.0
Stuart Fitzgerald,0.0
Sukeba Jackson-Olawunmi,0.0
Sullivan Guilford,0.0
Surleslie Hall,0.0
Sylvester Gavin,0.0
Sylville Smith,0.006944444444444444
Tabaris Brown,0.0
Tadarian Lawson,0.0
Taemarr Walker,0.0
Taft Sellers,0.0
Tahaji Wells,0.0009478672985781991
Tahiem Goffe,0.0
Tahir Adams,0.0
Takim Skipper,0.0
Talana Cain,0.0
Talia Barnes,0.0
Talif Scudder,0.0
Tameka Simpson,0.0
Tamir Rice,0.48812553011026294
Tanisha Anderson,0.03379805661174482
Tantao Pickron,0.0
Tarnorris Gaye,0.0
Tarrell Lucas,0.0
Tashii Brown,0.0034387895460797797
Tasjon Osbourne,0.0
Tatioun Williams,0.0
Taurean Wilson,0.0
Tavaris Gulley,0.0
Taveonte Emmanuel,0.0
Tavis Crane,0.0
Tavontae Haney,0.0
Tawon Boyd,0.004137115839243499
Tayler Rock,0.0
Tederalle Satchell,0.0
Tedlee Hargrove,0.0
Tendai Nhekairo,0.0
Terence Anderson,0.0
Terence Crutcher,0.053128689492325853
Terence Leslie,0.0
Terence Moses,0.0
Terence Walker,0.0004344048653344917
Terrace Smith,0.0
Terrance Abrams,0.0
Terrance Bridges,0.0
Terrance Carlton,0.0
Terrance Franklin,0.0006851661527920521
Terrance Gilbert,0.0
Terrance Harris,0.0
Terrance Kellom,0.00045413260672116256
Terrance Kennedy,0.0
Terrance Moxley,0.0
Terrell Beasley,0.0
Terrell Blake,0.0
Terrell Day,0.0
Terrell Eason,0.0
Terrell Houston,0.0
Terrell Johnson,0.0054869684499314125
Terrell Mitchell,0.0
Terrell Spires,0.0
Terrell Walker,0.0
Terrence Boatwright,0.0
Terrence Coleman,0.0030303030303030303
Terrence Crutcher,0.01652892561983471
Terrence Dawson,0.0
Terrence Ellis,0.0
Terrence Sterling,0.005885815185403178
Terrence Thomas,0.0
Terrence White,0.0
Terron Boone,0.009259259259259259
Terrozza Griffin,0.0
Terry Amons,0.0
Terry Brown,0.0027383619616629324
Terry Campbell,0.0
Terry Caver,0.0
Terry Cox,0.00029214139643587495
Terry Davis,0.002635046113306983
Terry Frost,0.0
Terry Garnett,0.0
Terry Heath,0.0
Terry Hudson,0.0
Terry Jackson,0.0
Terry Laffitte,0.0
Terry Nash,0.0
Terry Pittman,0.0
Terry Porter,0.00448681996634885
Terry Price,0.0013227513227513227
Terry Ramsey,0.0002384358607534573
Terry Tillman,0.0
Terry White,0.0008337965536409116
Terry Williams,0.004207573632538569
Terry Winston,0.0
Tevin Barkley,0.0
Tevin Hammond,0.0
Tevin Robinson,0.0
Tevon Smith,0.0
Thad Hale,0.0
Thaddeus Faison,0.0
Thaddeus McCarroll,0.00135623869801085
Theo Brenner,0.0
Theoddeus Gray,0.0
Theodore Blandford,0.0
Theodore Johnson,0.0008888888888888889
Thomas Aikens,0.0
Thomas Allen,0.009292035398230088
Thomas Ardd,0.0
Thomas Austin,0.0006293266205160479
Thomas Bean,0.0
Thomas Burns,0.0007396449704142012
Thomas Burton,0.0
Thomas Everett,0.0
Thomas Johnson,0.005931198102016607
Thomas Leatherwood,0.0
Thomas Manuel,0.0
Thomas McMullen,0.00030646644192460924
Thomas Miller,0.0007380073800738007
Thomas Robinson,0.045501910385550536
Thomas Waller,0.0
Thomas Watkins,0.0
Thomas Williams,0.0036469730123997084
Thomas Yatsko,0.001652892561983471
Thurman Blevins,0.009532888465204958
Thurman Reynolds,0.0
Thurrell Jowers,0.0
Tiano Meton,0.0
Tierre Guthrie,0.0
Tiffany Eubanks,0.0058997050147492625
Tiffini Tobe,0.0
Tim Reed,0.0005321979776476849
Timmie Williams,0.0
Timothy Albert,0.0
Timothy Collins,0.0
Timothy Deal,0.0
Timothy Dennis,0.0
Timothy Gray,0.0
Timothy Jackson,0.002325581395348837
Timothy Leon,0.0
Timothy Mayfield,0.0
Timothy Merrill,0.0
Timothy Mosley,0.0
Timothy Russell,0.0032456994482310936
Timothy Walker,0.0
Timothy Wall,0.0
Timothy Williams,0.001303780964797914
Timothy Woods,0.00027122321670735016
Timothy Wyatt,0.0
Tina Davis,0.002044989775051125
Tinoris Williams,0.0
Tiraneka Jenkins,0.0
Titus Latchison,0.0
Tizaya Jordan-Robinson,0.0
Tobby Wiggins,0.0
Tobias Mackey,0.0
Toby Bailey,0.0
Todarel Julien,0.0
Todd Bradshaw,0.0
Todd Dye,0.0
Todd Stone,0.0048543689320388345
Todd Williamson,0.0028646455001193603
Tommie McGlothen,0.0
Tommy Jackson,0.0
Tommy Yancy,0.0007833920877399138
Tony Anderson,0.0006920415224913495
Tony Bean,0.0
Tony Berry,0.000496031746031746
Tony Carr,0.010195412064570943
Tony Francis,0.0009439899307740718
Tony Johnson,0.0034762456546929316
Tony Mathis,0.0
Tony McDade,0.14492753623188406
Tony Robinson,0.04259094942324756
Tonya Buggs,0.0
Torey Breedlove,0.0
Torrey Robinson,0.0
Torrez Harris,0.0
Tory Casey,0.0
Tory Davis,0.0005292405398253506
Toussaint Sims,0.0
Tracey McKinney,0.0
Traci Clayton,0.0
Tracy Bost,0.0
Tracy Clyde,0.0
Tracy McCraw,0.0
Tracy Wade,0.0
Tracy Woodfork,0.0
Tramaine Poole,0.0
Tramon Savage,0.0
Transcini Richerson,0.0
Trashaun Shields,0.0
Traveon Avila,0.0
Travis Faison,0.001282051282051282
Travis Griffin,0.0
Travis Hardley,0.0
Travis Jordan,0.008791208791208791
Travis McNeil,0.0
Travis Miller,0.0014194464158978
Travis Page,0.0
Travis Smith,0.0
Travis Stevenson,0.0
Travon Chadwell,0.0
Trayford Pellerin,0.050387596899224806
Trayvon Dodson,0.0
Trayvon Martin,0.5869565217391305
Trayvon Mitchell,0.0
Tre-Kedrian White,0.0
Tremaine Dantzler,0.0
Tremaine Flythe,0.0
Tremall Anderson,0.0
Tremayne Williams,0.0
Treon Johnson,0.0
Trepierre Hummons,0.0009306654257794323
Treshun Miller,0.0
Treva Smutherman,0.0
Trevion Davis,0.0006180469715698393
Trevon Cole,0.00025106703489831785
Trevon Johnson,0.0
Trevon Miller,0.0
Trevor Gingras,0.0
Trevor Irby,0.004622496147919877
Trevor Taylor,0.001561524047470331
Trey Hunter,0.0
Trey Joyner,0.0
Trey Pringle,0.0
Trey Williams,0.01851316170089673
Treyh Webster,0.0
Tristan Long,0.0
Trivenskey Odom,0.0
Troy Gordon,0.0
Troy Hodge,0.0
Troy Robinson,0.0
Troy Stewart,0.0
Tsombe Clark,0.0
Ty'rell Pounds,0.0
Tyjuan Hill,0.0
Tyler Gebhard,0.0
Tyler Jones,0.0
Tyler Wicks,0.0
Tyler Woods,0.00293470286133529
Tymar Crawford,0.0
Tymyr Wilson,0.0
Tyquarn Graves,0.0
Tyran Dent,0.0
Tyre King,0.015330188679245283
Tyre Leone,0.0
Tyre Privott,0.0
Tyrease Carlyle,0.0
Tyrece Coleman,0.0
Tyree Bell,0.0006561679790026247
Tyree Davis,0.0
Tyree Edwards,0.0
Tyree Quiah,0.0
Tyree Rogers,0.0
Tyreeq Moore,0.0
Tyrell Fincher,0.0
Tyrell Pinkston,0.0
Tyrell Wilson,0.0
Tyrese West,0.0
Tyrie Cuyler,0.0
Tyrinde Mason-Thompson,0.0
Tyrique Johnson,0.0
Tyris Wilkerson,0.0
Tyrise Bell,0.0
Tyron Stevenson,0.0
Tyrone Banks,0.0
Tyrone Bass,0.00048520135856380397
Tyrone Brown,0.0007518796992481203
Tyrone Cummings,0.0
Tyrone Davis,0.00038895371450797355
Tyrone Harris,0.0027958993476234857
Tyrone Holman,0.0
Tyrone Lawrence,0.0
Tyrone Reado,0.0
Tyrone Smith,0.0014347202295552368
Tyrone West,0.0017543859649122807
Tyshawn Hancock,0.0
Tyshon Jones,0.0
Tywon Jones,0.0
Tywon Salters,0.0
Urie Gilchrist,0.0
Usaama Rahim,0.0013850415512465374
Uteva Wilson,0.0
Vales Delices,0.0
Vamond Elmore,0.0
Vaughn Denham,0.0
Vaughn Shaw,0.0
Veltavious Griggs,0.0
Vernell Bing,0.0
Vernicia Woodard,0.0008163265306122449
Victor Duffy,0.0
Victor Gaddy,0.0
Victor Jarvis,0.0
Victor Johnson,0.00034048348655090226
Victor Larosa,0.0
Victor White,0.008771929824561403
Vincense Williams,0.0
Vincent Belmonte,0.0
Vincent Hall,0.0
Vincent Harris,0.0
Vincent Owens,0.0
Vincent Parsons,0.0
Vincent Thomas,0.0014655593551538837
Vincent Truitt,0.0
Vincent Wood,0.0
Virgil Millon,0.0
Virgill Thorpe,0.0
VonDerrit Myers,0.010819808572617561
Vondarrow Fisher,0.0
Wadiya Brown,0.0
Wallace Staples,0.0
Wallace Wilder,0.0
Wally Camara,0.0
Walter Brown,0.0031305903398926656
Walter Folds,0.0
Walter Peterson,0.0
Walter Scott,0.15235955056179776
Walter Wallace,0.08290155440414508
Waltki Williams,0.0006215040397762585
Walwyn Jackson,0.0
Ward McClain,0.0
Wardel Davis,0.0
Wardell Johnson,0.0
Warren Collins,0.0
Warren Lawrence,0.0
Warren Robinson,0.0
Warren Wright,0.0
Wavey Austin,0.0
Wayne Edwards,0.00035385704175513094
Wayne Falana,0.0
Wayne Jones,0.0026872690628149142
Wayne Malone,0.0
Wayne Mitchell,0.0005803830528148578
Wayne North,0.00031055900621118014
Wayne Wheeler,0.0
Wayne Williams,0.0032126168224299065
Wendell Allen,0.002986857825567503
Wendell Celestine,0.0
Wenzola Rountree,0.0
Wesley Moore,0.0
Whitney Crawley,0.0
Wilford Hunton,0.0
Willard Bradley,0.0
Willard Scott,0.0025889967637540453
William Banks,0.0008899436369029962
William Baynes,0.0
William Brown,0.004291845493562232
William Bumbrey,0.0
William Burgess,0.0
William Campbell,0.02005231037489102
William Chapman,0.017217942908926143
William Cox,0.0
William Daniels,0.007668711656441718
William Debose,0.0026954177897574125
William Dupree,0.0
William Fuller,0.0
William Gibbs,0.0
William Green,0.012875536480686695
William Hardy,0.0009859502095144195
William Harmon,0.0
William Harris,0.0
William Harvey,0.008366678792288106
William Holmes,0.0
William Hope,0.0002527805864509606
William Howlett,0.0
William Jackson,0.01868131868131868
William Jones,0.009369676320272573
William Mathis,0.0
William Owens,0.0071090047393364926
William Pollard,0.0
William Rodgers,0.00026497085320614734
William Simon,0.0
William Simpkins,0.0
William Smith,0.014895509115162294
William Spates,0.0
William Stokes,0.0
William Taylor,0.01737242128121607
William Torbit,0.0
William Washington,0.0
William Watson,0.00686106346483705
Willie Anderson,0.0022068095838587644
Willie Banks,0.0
Willie Bingham,0.0
Willie Davis,0.005621693121693121
Willie Evans,0.0
Willie Gibbons,0.0
Willie Green,0.014582164890633763
Willie Hall,0.0007936507936507937
Willie Hampton,0.0
Willie Harden,0.0
Willie Hudson,0.0
Willie Ivey,0.0
Willie James,0.0022222222222222222
Willie Marable,0.0
Willie McCord,0.0
Willie McCoy,0.0550122249388753
Willie Miller,0.00542807796693807
Willie Neal,0.0006723442402510085
Willie Quarles,0.0
Willie Robinson,0.0012239902080783353
Willie Sams,0.0
Willie Shropshire,0.0
Willie Simmons,0.022058823529411766
Willie Sudduth,0.0
Willie Tillman,0.0
Willie Washington,0.0
Willie Williams,0.0021961932650073207
Willie Woodson,0.0
Willie Wright,0.0
Willis Walker,0.0
Wilson Victorian,0.0
Winfield Fisher,0.0
Winfred Parker,0.0
Winston Gaskin,0.0
Winston Latour,0.0
Winston Redman,0.0
Woodrow Player,0.0
Wyatt Robinson,0.0
Xavier Ferguson,0.0
Xavier McCord,0.0
Xavier McDonald,0.0
Xavier Somerville,0.0
Xena Norman,0.0
Yahree Cavin,0.0
Yassin Mohamed,0.013774104683195593
Yohans Leon,0.0
Yolanda Thomas,0.0
Yonas Alehegne,0.0
Yuvette Henderson,0.001312910284463895
Yvette Smith,0.023890784982935155
Yvette Williams,0.0013777267508610792
Yvonne McNeal,0.0
Zachery Anderson,0.0
Zale Thompson,0.001256281407035176
Zamiel Crawford,0.0
Zayounta Washington,0.0
Zelalem Ewnetu,0.0
Zepp Crouchet,0.0
Zikarious Flint,0.0
Zoe Dowdell,0.0008064516129032258
Zonell Williams,0.0
Zonterius Johnson,0.0
Zyon Wyche,0.0
